{
  "_id": "SW6Os7QVZTWc4Ctd",
  "name": "Barbazu Beard",
  "permission": {
    "default": 0
  },
  "type": "weapon",
  "data": {
    "description": {
      "value": "<p><strong>Source</strong> <em>Cheliax, Empire of Devils pg. 27</em></p><h3 class=\"framing\">Statistics</h3><p><strong>Cost</strong> 25 gp <strong>Weight</strong> 5 lbs.</p><p><strong>Damage</strong> 1d3 (small), 1d4 (medium); <strong>Critical</strong> x2; <strong>Range</strong> -; <strong>Type</strong> S; <strong>Special</strong> -</p><p><strong>Category</strong> Light; <strong>Proficiency</strong> Exotic</p><h3 class=\"framing\">Description</h3><p>Popular in Egorian but rarely seen elsewhere, a barbazu beard is an intimidating helm with a full facemask wrought to look like a snarling barbazu's head. Extending from the chin area of the face guard is a razor-sharp blade much like an actual barbazu's beard, usually 8 inches long but sometimes longer. A barbazu beard can be used as an off-hand weapon that requires no hands to use; thus, a warrior could combine use of a barbazu beard with a two-handed weapon. It otherwise follows all rules for using an off-hand weapon. Attacking with a barbazu beard provokes an attack of opportunity. Because it is so close to the wearer's face, using a barbazu beard against creatures harmful to touch (such as fire elementals and acidic oozes) has the same risks as using a natural weapon or unarmed strike against these creatures.</p><p></p><p> A barbazu beard is a light melee exotic weapon.</p>",
      "chat": "",
      "unidentified": ""
    },
    "tags": [],
    "quantity": 1,
    "weight": 5,
    "price": 25,
    "identified": true,
    "hp": {
      "max": 2,
      "value": 2
    },
    "hardness": 10,
    "carried": true,
    "unidentified": {
      "price": 0,
      "name": ""
    },
    "identifiedName": "Barbazu Beard",
    "cl": 0,
    "aura": {
      "custom": false,
      "school": ""
    },
    "changes": [],
    "changeFlags": {
      "loseDexToAC": false,
      "noEncumbrance": false,
      "mediumArmorFullSpeed": false,
      "heavyArmorFullSpeed": false,
      "noStr": false,
      "noDex": false,
      "oneInt": false,
      "oneWis": false,
      "oneCha": false
    },
    "contextNotes": [],
    "links": {
      "children": []
    },
    "tag": "barbazuBeard",
    "useCustomTag": false,
    "flags": {
      "boolean": [],
      "dictionary": []
    },
    "equipped": true,
    "masterwork": false,
    "nonlethal": false,
    "weaponType": "exotic",
    "weaponSubtype": "light",
    "properties": {
      "blc": false,
      "brc": false,
      "dbl": false,
      "dis": false,
      "fin": false,
      "frg": false,
      "imp": false,
      "mnk": false,
      "nnl": false,
      "prf": false,
      "rch": false,
      "thr": false,
      "trp": false,
      "grp": false,
      "snd": false,
      "dea": false,
      "dst": false
    },
    "enh": null,
    "weaponData": {
      "damageRoll": "1d4",
      "damageType": "S",
      "critRange": 20,
      "critMult": 2,
      "range": 0,
      "attackFormula": "",
      "damageFormula": "",
      "size": "med",
      "maxRangeIncrements": 1
    },
    "broken": false,
    "bonus": {
      "value": 0,
      "_deprecated": true
    },
    "damageType": {
      "value": "",
      "_deprecated": true
    },
    "damage2": {
      "value": "",
      "_deprecated": true
    },
    "damage2Type": {
      "value": "",
      "_deprecated": true
    },
    "damage": {
      "parts": []
    },
    "uses": {
      "value": 0,
      "max": 0
    }
  },
  "flags": {},
  "img": "systems/pf1/icons/items/weapons/barbazu-beard.png",
  "effects": []
}