{
  "_id": "LkmVBaF0F1FXu9fK",
  "name": "Chain Shot (Siege)",
  "permission": {
    "default": 0
  },
  "type": "loot",
  "data": {
    "description": {
      "value": "<p><strong>Source</strong> <em>Ultimate Combat pg. 164</em></p>\n<h3 class=\"framing\">Statistics</h3>\n<p><strong>Cost</strong> 50 gp <strong>Weight</strong> 30 lbs</p>\n<p><strong>Category</strong> Ammunition; <strong>Proficiency</strong> Siege Engine</p>\n<h3 class=\"framing\">Description</h3>\n<p>This siege engine firearm ammunition can be loaded in a cannon or a fiend's mouth cannon. It is especially good at tearing through sails and dirigibles (see @Compendium[pf-content.pf-rules.sjmHLtUHjp10PRNg]{6.2.2. Full Vehicle Rules} and @Compendium[pf-content.pf-rules.RQx3RwhdQds2znsh]{6.2.2.09. Propulsion Devies}), dealing double its normal damage to those forms of propulsion.</p>\n<p>When fired at a creature, on a hit, the creature must succeed at a <strong>DC 20 Fortitude saving throw</strong> or be knocked prone.</p>",
      "chat": "",
      "unidentified": ""
    },
    "tags": [],
    "quantity": 1,
    "weight": 300,
    "price": 50,
    "identified": true,
    "hp": {
      "max": 1,
      "value": 1
    },
    "hardness": 5,
    "carried": true,
    "unidentified": {
      "price": 0,
      "name": ""
    },
    "identifiedName": "Chain Shot (Siege)",
    "cl": 0,
    "aura": {
      "custom": false,
      "school": ""
    },
    "changes": [],
    "changeFlags": {
      "loseDexToAC": false,
      "noEncumbrance": false,
      "mediumArmorFullSpeed": false,
      "heavyArmorFullSpeed": false
    },
    "contextNotes": [],
    "links": {
      "children": []
    },
    "tag": "chainShotSiege",
    "useCustomTag": false,
    "flags": {
      "boolean": [],
      "dictionary": []
    },
    "subType": "misc",
    "equipped": true,
    "uses": {
      "value": 0,
      "max": 0
    },
    "conditionals": []
  },
  "flags": {},
  "img": "icons/weapons/ammunition/shot-round-blue.webp",
  "effects": []
}