{
  "name": "Firewyrm",
  "permission": {
    "default": 0
  },
  "type": "weapon",
  "data": {
    "description": {
      "value": "<p><strong>Source</strong> <em>Ultimate Combat pg. 163</em></p>\n<h3 class=\"framing\">Statistics</h3>\n<p><strong>Cost</strong> 6,000 gp <strong>Weight</strong> -</p>\n<p><strong>Damage</strong> 6d6; <strong>Critical</strong> -; <strong>Range</strong> -; <strong>Type</strong> fire</p>\n<p><strong>Crew</strong> 5; <strong>Aim</strong> 2; <strong>Load</strong> 6; <strong>Speed</strong> 0 ft.</p>\n<p><strong>Category</strong> Direct-Fire (Gargantuan); <strong>Proficiency</strong> Siege Engine</p>\n<h3 class=\"framing\">Description</h3>\n<p>This siege engine is a larger version of the firedrake. A firewyrm is too large to be transported to the battlefield in one piece and must be assembled once the component parts reach the battlefield. A firewyrm fires its gout of flame in either a 120-foot line or a 60-foot cone (crew leader's choice). Targets in the area take 6d6 points of fire damage (DC 20 Reflex save halves). Those who fail their saves catch on fire.</p>\n<p>A firewyrm with the broken condition that suffers a further mishap explodes, dealing its damage to all creatures within a 30-foot blast (DC 20 Reflex save halves). Firewyrms have a hardness of 10 and 140 hit points.</p>\n<p>One use of firewyrm ammunition costs 400 gp and weighs 40 pounds.</p>",
      "chat": "",
      "unidentified": ""
    },
    "tags": [],
    "quantity": 1,
    "weight": 0,
    "price": 6000,
    "identified": true,
    "hp": {
      "max": 10,
      "value": 10
    },
    "hardness": 10,
    "carried": true,
    "unidentified": {
      "price": 0,
      "name": ""
    },
    "identifiedName": "Firewyrm",
    "cl": 0,
    "aura": {
      "custom": false,
      "school": ""
    },
    "changes": [],
    "changeFlags": {
      "loseDexToAC": false,
      "noEncumbrance": false,
      "mediumArmorFullSpeed": false,
      "heavyArmorFullSpeed": false
    },
    "contextNotes": [],
    "links": {
      "children": []
    },
    "tag": "firewyrm",
    "useCustomTag": false,
    "flags": {
      "boolean": [],
      "dictionary": []
    },
    "equipped": true,
    "masterwork": false,
    "nonlethal": false,
    "weaponType": "exotic",
    "weaponSubtype": "ranged",
    "properties": {
      "blc": false,
      "brc": false,
      "dea": false,
      "dis": false,
      "dst": false,
      "dbl": false,
      "fin": false,
      "frg": false,
      "grp": false,
      "imp": false,
      "mnk": false,
      "nnl": false,
      "prf": false,
      "rch": false,
      "snd": false,
      "thr": false,
      "trp": false
    },
    "enh": null,
    "weaponData": {
      "damageRoll": "6d6",
      "damageType": "fire",
      "critRange": "NULL",
      "critMult": "2",
      "range": 0,
      "attackFormula": "",
      "damageFormula": "",
      "size": "med",
      "maxRangeIncrements": 1
    },
    "broken": false,
    "bonus": {
      "value": 0,
      "_deprecated": true
    },
    "damageType": {
      "value": "",
      "_deprecated": true
    },
    "damage2": {
      "value": "",
      "_deprecated": true
    },
    "damage2Type": {
      "value": "",
      "_deprecated": true
    },
    "damage": {
      "parts": [],
      "critParts": [],
      "nonCritParts": []
    },
    "uses": {
      "value": 0,
      "max": 0
    }
  },
  "flags": {},
  "img": "icons/commodities/treasure/statue-carved-figurehead.webp",
  "effects": [],
  "_id": "9rlo80SFRpzskmjx"
}