{
  "name": "Hotchkiss 6 Pounder",
  "permission": {
    "default": 0
  },
  "type": "weapon",
  "data": {
    "description": {
      "value": "<p><strong>Source</strong> <em>Pathfinder #71: Rasputin Must Die! pg. 64</em></p><h3 class=\"framing\">Statistics</h3><p><strong>Cost</strong> 2,000 gp <strong>Weight</strong> special</p><p><strong>Damage</strong> 8d6 ; <strong>Critical</strong> x3; <strong>Range</strong> 300 ft.; <strong>Type</strong> B, P, and S</p><p><strong>Misfire</strong> 1; <strong>Crew</strong> 2; <strong>Aim</strong> 0; <strong>Load</strong> 2</p><p><strong>Category</strong> Siege; <strong>Proficiency</strong> Exotic</p><h3 class=\"framing\">Description</h3><p>The Hotchkiss 6 pounder  gun is a shortened version of the Hotchkiss 6 pounder  naval gun, designed for use in the sponsons of World  War I-era tanks such as the Mark IV. The Hotchkiss  6 pounder is a direct-f ire advanced siege f irearm that  must be mounted in place on a vehicle to be used. It  f ires high explosive (HE) shells that deal 8d6 points  of bludgeoning, piercing, and slashing  damage in a 30-foot radius around the  point of impact (Ref lex DC 20 for  half ). A Hotchkiss 6 pounder is a Medium weapon and  has hardness 10 and 70 hit points. Hotchkiss HE shells  cost 25 gp each and weigh 6 pounds each.\" </p>",
      "chat": "",
      "unidentified": ""
    },
    "tags": [],
    "quantity": 1,
    "weight": 0,
    "price": 2000,
    "identified": true,
    "hp": {
      "max": 10,
      "value": 10
    },
    "hardness": 10,
    "carried": true,
    "unidentified": {
      "price": 0,
      "name": ""
    },
    "identifiedName": "",
    "cl": 0,
    "aura": {
      "custom": false,
      "school": ""
    },
    "changes": [],
    "changeFlags": {
      "loseDexToAC": false,
      "noEncumbrance": false,
      "mediumArmorFullSpeed": false,
      "heavyArmorFullSpeed": false
    },
    "contextNotes": [],
    "links": {
      "children": []
    },
    "tag": "hotchkiss6Pounder",
    "useCustomTag": false,
    "flags": {
      "boolean": [],
      "dictionary": []
    },
    "equipped": true,
    "masterwork": false,
    "nonlethal": false,
    "weaponType": "exotic",
    "weaponSubtype": "ranged",
    "properties": {},
    "enh": null,
    "weaponData": {
      "damageRoll": "8d6",
      "damageType": "B, P, and S",
      "critRange": "NULL",
      "critMult": "3",
      "range": 300,
      "attackFormula": "",
      "damageFormula": "",
      "size": "med",
      "maxRangeIncrements": 1
    },
    "broken": false,
    "bonus": {
      "value": 0,
      "_deprecated": true
    },
    "damageType": {
      "value": "",
      "_deprecated": true
    },
    "damage2": {
      "value": "",
      "_deprecated": true
    },
    "damage2Type": {
      "value": "",
      "_deprecated": true
    },
    "damage": {
      "parts": [],
      "critParts": [],
      "nonCritParts": []
    },
    "uses": {
      "value": 0,
      "max": 0
    }
  },
  "flags": {},
  "img": "icons/weapons/artillery/cannon-engraved-gold.webp",
  "effects": [],
  "_id": "4ZPiCFQ4y1bXrz3l"
}