{
  "_id": "2NbFpmi1wz20yJxm",
  "name": "Kestros Dart (10)",
  "permission": {
    "default": 0
  },
  "type": "loot",
  "data": {
    "description": {
      "value": "<p><strong>Source</strong> <em>Ultimate Equipment pg. 22</em></p>\n<h3 class=\"framing\"><img style=\"margin: 3px 3px 0px 3px;\" title=\"PFS Legal\" src=\"https://www.aonprd.com/images/PathfinderSocietySymbol.gif\" />Statistics</h3>\n<p><strong>Cost</strong> 5 gp <strong>Weight</strong> 5 lbs.</p>\n<p><strong>Category</strong> Ammunition; <strong>Proficiency</strong> Ammunition</p>\n<h3 class=\"framing\">Description</h3>\n<p>This dart, meant to be thrown using a kestros, consists of a heavy metal point about 9 inches long attached to a shaft of wood about 12 inches long, fletched with feathers for stability. If used as a melee weapon, it is a light improvised weapon (-4 penalty on attack rolls) and deals damage as a dagger of its size (critical multiplier x2). Kestros darts come in a quiver that holds 10 darts.</p>",
      "chat": "",
      "unidentified": ""
    },
    "tags": [],
    "quantity": 10,
    "weight": 50,
    "price": 5,
    "identified": true,
    "hp": {
      "max": 1,
      "value": 1
    },
    "hardness": 5,
    "carried": true,
    "unidentified": {
      "price": 0,
      "name": ""
    },
    "identifiedName": "Kestros Dart (10)",
    "cl": 0,
    "aura": {
      "custom": false,
      "school": ""
    },
    "changes": [],
    "changeFlags": {
      "loseDexToAC": false,
      "noEncumbrance": false,
      "mediumArmorFullSpeed": false,
      "heavyArmorFullSpeed": false
    },
    "contextNotes": [],
    "links": {
      "children": []
    },
    "tag": "kestrosDart10",
    "useCustomTag": false,
    "flags": {
      "boolean": [],
      "dictionary": []
    },
    "subType": "misc",
    "equipped": true,
    "properties": {},
    "weaponData": {},
    "bonus": {},
    "damageType": {},
    "damage2": {},
    "damage2Type": {},
    "uses": {
      "value": 0,
      "max": 0
    },
    "conditionals": []
  },
  "flags": {},
  "img": "icons/weapons/ammunition/arrows-bodkin-yellow-red.webp",
  "effects": []
}