{
  "name": "Madu (Leather/Steel)",
  "permission": {
    "default": 0
  },
  "type": "weapon",
  "data": {
    "description": {
      "value": "<p><strong>Source</strong> <em>Ultimate Equipment pg. 20</em>, <em>Legacy of Fire Player's Guide pg. 22</em>, <em>Adventurer's Armory pg. 4</em>, <em>Ultimate Combat pg. 144</em></p><h3 class=\"framing\"><img src=\"https://www.aonprd.com/images/PathfinderSocietySymbol.gif\" title=\"PFS Legal\" style=\"margin:3px 3px 0px 3px;\">Statistics</h3><p><strong>Cost</strong> 40 gp/50 gp <strong>Weight</strong> 5 lbs./6 lbs.</p><p><strong>Damage</strong> 1d3 (small), 1d4 (medium); <strong>Critical</strong> x2; <strong>Range</strong> -; <strong>Type</strong> P; <strong>Special</strong> performance</p><p><strong>Category</strong> Light; <strong>Proficiency</strong> Exotic</p><p><strong>Weapon Groups</strong> Blades, Light; Close</p><h3 class=\"framing\">Description</h3><p>The madu is a round, light leather shield with two animal horns-usually from an antelope-extending from opposite sides. If you are proficient with the madu, you may use it to fight defensively with a -2 penalty instead of the normal -4, and your attack penalty for using Combat Expertise improves by +1 (minimum -1 penalty). You cannot hold anything else in the hand that bears a madu. If you are not proficient with the it, treat it as a light spiked shield. A madu can't be disarmed. It can be crafted entirely out of metal, but both versions offer the same basic protection and attack benefits, though they respond differently to some spells and effects. A druid can use a leather madu, but not a steel madu.</p>",
      "chat": "",
      "unidentified": ""
    },
    "tags": [],
    "quantity": 1,
    "weight": 5,
    "price": 40,
    "identified": true,
    "hp": {
      "max": 2,
      "value": 2
    },
    "hardness": 10,
    "carried": true,
    "unidentified": {
      "price": 0,
      "name": ""
    },
    "identifiedName": "Madu (Leather/Steel)",
    "cl": 0,
    "aura": {
      "custom": false,
      "school": ""
    },
    "changes": [],
    "changeFlags": {
      "loseDexToAC": false,
      "noEncumbrance": false,
      "mediumArmorFullSpeed": false,
      "heavyArmorFullSpeed": false
    },
    "contextNotes": [],
    "links": {
      "children": []
    },
    "tag": "maduLeathersteel",
    "useCustomTag": false,
    "flags": {
      "boolean": [],
      "dictionary": []
    },
    "equipped": true,
    "masterwork": false,
    "nonlethal": false,
    "weaponType": "exotic",
    "weaponSubtype": "light",
    "properties": {
      "blc": false,
      "brc": false,
      "dbl": false,
      "dis": false,
      "fin": false,
      "frg": false,
      "grp": false,
      "imp": false,
      "mnk": false,
      "nnl": false,
      "prf": true,
      "rch": false,
      "snd": false,
      "thr": false,
      "trp": false,
      "dea": false,
      "dst": false
    },
    "enh": null,
    "weaponData": {
      "damageRoll": "1d4",
      "damageType": "P",
      "critRange": 20,
      "critMult": 2,
      "range": 0,
      "attackFormula": "",
      "damageFormula": "",
      "size": "med",
      "maxRangeIncrements": 1
    },
    "broken": false,
    "bonus": {
      "value": 0,
      "_deprecated": true
    },
    "damageType": {
      "value": "",
      "_deprecated": true
    },
    "damage2": {
      "value": "",
      "_deprecated": true
    },
    "damage2Type": {
      "value": "",
      "_deprecated": true
    },
    "uses": {
      "value": 0,
      "max": 0
    }
  },
  "flags": {},
  "img": "systems/pf1/icons/items/armor/madu.png",
  "effects": [],
  "_id": "OykQBPCefkZToR7s"
}