{
  "_id": "OSMucqGus8xjMxUT",
  "name": "Pronged Bolt",
  "permission": {
    "default": 0
  },
  "type": "loot",
  "data": {
    "description": {
      "value": "<p><strong>Source</strong>&nbsp;<em>Ranged Tactics Toolbox pg. 19</em></p>\n<h3 class=\"framing\"><img style=\"margin: 3px 3px 0px 3px;\" title=\"PFS Legal\" src=\"https://www.aonprd.com/images/PathfinderSocietySymbol.gif\" />Statistics</h3>\n<p><strong>Cost</strong>&nbsp;2 gp&nbsp;<strong>Weight</strong>&nbsp;3 lbs.</p>\n<p><strong>Category</strong>&nbsp;Ammunition;&nbsp;<strong>Proficiency</strong>&nbsp;Ammunition</p>\n<h3 class=\"framing\">Description</h3>\n<p>Rather than narrowing to a single point, a pronged arrow has a wide face with two points resembling a crescent or V-shape.</p>\n<p>Originally used for hunting game, a pronged arrow deals damage as if&nbsp;<strong>one size category smaller</strong>, but you gain a&nbsp;<strong>+1 bonus on attack rolls</strong>&nbsp;against creatures or objects one or more size categories smaller than you.</p>",
      "chat": "",
      "unidentified": ""
    },
    "tags": [],
    "quantity": 1,
    "weight": 0.15,
    "price": 0.1,
    "identified": true,
    "hp": {
      "max": 1,
      "value": 1
    },
    "hardness": 5,
    "carried": true,
    "unidentified": {
      "price": 0.1,
      "name": ""
    },
    "identifiedName": "Pronged Bolt",
    "cl": 0,
    "aura": {
      "custom": false,
      "school": ""
    },
    "changes": [],
    "changeFlags": {
      "loseDexToAC": false,
      "noEncumbrance": false,
      "mediumArmorFullSpeed": false,
      "heavyArmorFullSpeed": false,
      "noStr": false,
      "noDex": false,
      "oneInt": false,
      "oneWis": false,
      "oneCha": false
    },
    "contextNotes": [],
    "links": {
      "children": []
    },
    "tag": "",
    "useCustomTag": false,
    "flags": {
      "boolean": [],
      "dictionary": []
    },
    "subType": "ammo",
    "equipped": false,
    "damage": {
      "parts": [],
      "critParts": []
    },
    "conditionals": [],
    "uses": {
      "value": 0,
      "max": 0
    }
  },
  "flags": {},
  "img": "systems/pf1/icons/items/weapons/bolt.PNG",
  "effects": []
}