{
  "_id": "v404qfv0Xg2VLhtZ",
  "name": "Spongestones Sling Bullets (10)",
  "permission": {
    "default": 0
  },
  "type": "loot",
  "data": {
    "description": {
      "value": "<p><strong>Source</strong> <em>Halflings of Golarion pg. 23</em></p><h3 class=\"framing\"><img src=\"https://www.aonprd.com/images/PathfinderSocietySymbol.gif\" title=\"PFS Legal\" style=\"margin:3px 3px 0px 3px;\">Statistics</h3><p><strong>Cost</strong> 10 gp <strong>Weight</strong> 2 lbs.</p><p><strong>Category</strong> Ammunition; <strong>Proficiency</strong> Ammunition</p><h3 class=\"framing\">Description</h3><p>These bullets are actually made from a porous stone or heavy wood that absorbs liquids and shatters on impact. Spongestones are often used to deliver poison or burning oil. A flask of oil completely saturates 10 spongestones. When ignited (a free action if fire is available), a burning, oil-soaked spongestone deals +1d2 fire damage and can ignite combustible materials (such as a thatched roof ). Allowing a spongestone to burn in a sling's cup for more than 1d3 rounds gives the sling the broken condition.</p>",
      "chat": "",
      "unidentified": ""
    },
    "tags": [],
    "quantity": 10,
    "weight": 20,
    "price": 10,
    "identified": true,
    "hp": {
      "max": 1,
      "value": 1
    },
    "hardness": 5,
    "carried": true,
    "unidentified": {
      "price": 0,
      "name": ""
    },
    "identifiedName": "Spongestones Sling Bullets (10)",
    "cl": 0,
    "aura": {
      "custom": false,
      "school": ""
    },
    "changes": [],
    "changeFlags": {
      "loseDexToAC": false,
      "noEncumbrance": false,
      "mediumArmorFullSpeed": false,
      "heavyArmorFullSpeed": false,
      "noStr": false,
      "noDex": false,
      "oneInt": false,
      "oneWis": false,
      "oneCha": false
    },
    "contextNotes": [],
    "links": {
      "children": []
    },
    "tag": "halflingSpongestones10",
    "useCustomTag": false,
    "flags": {
      "boolean": [],
      "dictionary": []
    },
    "subType": "misc",
    "equipped": true,
    "damage": {
      "parts": [],
      "critParts": []
    },
    "properties": {},
    "weaponData": {},
    "bonus": {},
    "damageType": {},
    "damage2": {},
    "damage2Type": {},
    "uses": {
      "value": 0,
      "max": 0
    },
    "conditionals": []
  },
  "flags": {},
  "img": "icons/weapons/ammunition/shot-round-silver.webp",
  "effects": []
}