{
  "_id": "u0m62wkXRMySE1eY",
  "name": "Thistle Arrow",
  "permission": {
    "default": 0
  },
  "type": "loot",
  "data": {
    "description": {
      "value": "<p><strong>Source</strong> <em>Adventurer's Armory pg. 18</em>, <em>Pathfinder Campaign Setting pg. 211</em></p>\n<h3 class=\"framing\"><img style=\"margin: 3px 3px 0px 3px;\" title=\"PFS Legal\" src=\"https://www.aonprd.com/images/PathfinderSocietySymbol.gif\" />Statistics</h3>\n<p><strong>Cost</strong> 1 gp <strong>Weight</strong> -</p>\n<p><strong>Category</strong> Ammunition; <strong>Proficiency</strong> Ammunition</p>\n<h3 class=\"framing\">Description</h3>\n<p>Crafted from the thistles of a poisonous plant, these barbed arrows <strong>deal damage as a bleed effect</strong> for 1d6 rounds after a hit.</p>",
      "chat": "",
      "unidentified": ""
    },
    "tags": [],
    "quantity": 1,
    "weight": 0,
    "price": 1,
    "identified": true,
    "hp": {
      "max": 1,
      "value": 1
    },
    "hardness": 5,
    "carried": true,
    "unidentified": {
      "price": 0,
      "name": ""
    },
    "identifiedName": "Thistle Arrow",
    "cl": 0,
    "aura": {
      "custom": false,
      "school": ""
    },
    "changes": [],
    "changeFlags": {
      "loseDexToAC": false,
      "noEncumbrance": false,
      "mediumArmorFullSpeed": false,
      "heavyArmorFullSpeed": false,
      "noStr": false,
      "noDex": false,
      "oneInt": false,
      "oneWis": false,
      "oneCha": false
    },
    "contextNotes": [],
    "links": {
      "children": []
    },
    "tag": "thistleArrow",
    "useCustomTag": false,
    "flags": {
      "boolean": [],
      "dictionary": []
    },
    "subType": "ammo",
    "equipped": false,
    "damage": {
      "parts": [],
      "critParts": []
    }
  },
  "flags": {},
  "img": "systems/pf1/icons/items/weapons/arrow-special.PNG",
  "effects": []
}