{
  "name": "Werespider (human Form)",
  "type": "npc",
  "img": "systems/pf1/icons/races/human.jpg",
  "data": {
    "abilities": {
      "str": {
        "total": 14,
        "mod": 2,
        "value": 14,
        "carryBonus": 0,
        "carryMultiplier": 1,
        "checkMod": 0,
        "damage": 0,
        "drain": 0,
        "penalty": 0,
        "userPenalty": 0,
        "base": 10,
        "baseMod": 0
      },
      "dex": {
        "total": 15,
        "mod": 2,
        "value": 15,
        "checkMod": 0,
        "damage": 0,
        "drain": 0,
        "penalty": 0,
        "userPenalty": 0,
        "base": 10,
        "baseMod": 0
      },
      "con": {
        "total": 15,
        "mod": 2,
        "value": 15,
        "checkMod": 0,
        "damage": 0,
        "drain": 0,
        "penalty": 0,
        "userPenalty": 0,
        "base": 10,
        "baseMod": 0
      },
      "int": {
        "total": 8,
        "mod": -1,
        "value": 8,
        "checkMod": 0,
        "damage": 0,
        "drain": 0,
        "penalty": 0,
        "userPenalty": 0,
        "base": 10,
        "baseMod": 0
      },
      "wis": {
        "total": 14,
        "mod": 2,
        "value": 14,
        "checkMod": 0,
        "damage": 0,
        "drain": 0,
        "penalty": 0,
        "userPenalty": 0,
        "base": 10,
        "baseMod": 0
      },
      "cha": {
        "total": 8,
        "mod": -1,
        "value": 8,
        "checkMod": 0,
        "damage": 0,
        "drain": 0,
        "penalty": 0,
        "userPenalty": 0,
        "base": 10,
        "baseMod": 0
      }
    },
    "resources": {},
    "attributes": {
      "encumbrance": {
        "level": 0,
        "levels": {
          "light": 33,
          "medium": 66,
          "heavy": 100,
          "carry": 200,
          "drag": 500
        },
        "carriedWeight": 0
      },
      "vision": {
        "lowLight": false,
        "darkvision": 0
      },
      "hpAbility": "con",
      "cmbAbility": "str",
      "hd": {
        "base": {
          "_deprecated": true,
          "value": 0
        },
        "total": 1,
        "max": {
          "_deprecated": true,
          "value": 0
        }
      },
      "naturalAC": 0,
      "ac": {
        "normal": {
          "value": 0,
          "total": 15
        },
        "touch": {
          "value": 0,
          "total": 12
        },
        "flatFooted": {
          "value": 0,
          "total": 13
        }
      },
      "bab": {
        "value": 0,
        "total": 1
      },
      "cmd": {
        "value": 0,
        "total": 15,
        "flatFootedTotal": 10
      },
      "cmb": {
        "value": 0,
        "total": 3
      },
      "sr": {
        "formula": "",
        "total": 0
      },
      "saveNotes": " +4 vs. mind-affecting effects",
      "acNotes": "",
      "cmdNotes": "",
      "srNotes": "",
      "attack": {
        "general": 0,
        "shared": 0,
        "melee": 0,
        "ranged": 0,
        "meleeAbility": "str",
        "rangedAbility": "dex"
      },
      "damage": {
        "general": 0,
        "weapon": 0,
        "spell": 0
      },
      "maxDexBonus": null,
      "mDex": {
        "armorBonus": 0,
        "shieldBonus": 0
      },
      "acp": {
        "gear": 0,
        "encumbrance": 0,
        "total": 0,
        "armorBonus": 0,
        "shieldBonus": 0,
        "attackPenalty": 0
      },
      "energyDrain": 0,
      "quadruped": false,
      "savingThrows": {
        "fort": {
          "base": 0,
          "total": 0,
          "ability": "con"
        },
        "ref": {
          "base": 0,
          "total": 0,
          "ability": "dex"
        },
        "will": {
          "base": 0,
          "total": 0,
          "ability": "wis"
        }
      },
      "hp": {
        "value": 16,
        "base": 0,
        "max": 0,
        "temp": 0,
        "nonlethal": 0
      },
      "wounds": {
        "min": 0,
        "max": 0,
        "base": 0,
        "value": 0
      },
      "vigor": {
        "min": 0,
        "value": 0,
        "temp": 0,
        "max": 0,
        "base": 0
      },
      "woundThresholds": {
        "penalty": 0,
        "mod": 0,
        "level": 0,
        "override": -1
      },
      "init": {
        "value": 0,
        "bonus": 0,
        "total": 6,
        "ability": "dex"
      },
      "prof": 2,
      "speed": {
        "land": {
          "base": 30,
          "total": 30
        },
        "climb": {
          "base": 0,
          "total": null
        },
        "swim": {
          "base": 0,
          "total": null
        },
        "burrow": {
          "base": 0,
          "total": null
        },
        "fly": {
          "base": 0,
          "total": null,
          "maneuverability": "average"
        }
      },
      "conditions": {
        "bleed": false,
        "blind": false,
        "confused": false,
        "dazed": false,
        "dazzled": false,
        "deaf": false,
        "entangled": false,
        "fatigued": false,
        "frightened": false,
        "exhausted": false,
        "grappled": false,
        "helpless": false,
        "incorporeal": false,
        "invisible": false,
        "nauseated": false,
        "panicked": false,
        "paralyzed": false,
        "pinned": false,
        "prone": false,
        "shaken": false,
        "sickened": false,
        "staggered": false,
        "stunned": false
      },
      "spells": {
        "usedSpellbooks": [],
        "spellbooks": {
          "primary": {
            "altName": "",
            "castPerDayAllOffsetFormula": "",
            "preparedAllOffsetFormula": "",
            "name": "Primary",
            "casterType": "high",
            "class": "",
            "cl": {
              "base": 0,
              "value": 0,
              "total": 0,
              "formula": ""
            },
            "concentration": 0,
            "concentrationFormula": "",
            "concentrationNotes": "",
            "clNotes": "",
            "ability": "int",
            "autoSpellLevelCalculation": true,
            "autoSpellLevels": true,
            "arcaneSpellFailure": true,
            "hasCantrips": true,
            "spellPreparationMode": "spontaneous",
            "baseDCFormula": "10 + @sl + @ablMod",
            "spontaneous": false,
            "spellPoints": {
              "useSystem": false,
              "value": 0,
              "max": 0,
              "maxFormula": "",
              "restoreFormula": ""
            },
            "spells": {
              "spell0": {
                "castPerDayOffsetFormula": "",
                "preparedOffsetFormula": ""
              },
              "spell1": {
                "castPerDayOffsetFormula": "",
                "preparedOffsetFormula": ""
              },
              "spell2": {
                "castPerDayOffsetFormula": "",
                "preparedOffsetFormula": ""
              },
              "spell3": {
                "castPerDayOffsetFormula": "",
                "preparedOffsetFormula": ""
              },
              "spell4": {
                "castPerDayOffsetFormula": "",
                "preparedOffsetFormula": ""
              },
              "spell5": {
                "castPerDayOffsetFormula": "",
                "preparedOffsetFormula": ""
              },
              "spell6": {
                "castPerDayOffsetFormula": "",
                "preparedOffsetFormula": ""
              },
              "spell7": {
                "castPerDayOffsetFormula": "",
                "preparedOffsetFormula": ""
              },
              "spell8": {
                "castPerDayOffsetFormula": "",
                "preparedOffsetFormula": ""
              },
              "spell9": {
                "castPerDayOffsetFormula": "",
                "preparedOffsetFormula": ""
              }
            },
            "spellSlotAbilityBonusFormula": "",
            "domainSlotValue": 1
          },
          "secondary": {
            "altName": "",
            "castPerDayAllOffsetFormula": "",
            "preparedAllOffsetFormula": "",
            "name": "Secondary",
            "casterType": "high",
            "class": "",
            "cl": {
              "base": 0,
              "value": 0,
              "total": 0,
              "formula": ""
            },
            "concentration": 0,
            "concentrationFormula": "",
            "concentrationNotes": "",
            "clNotes": "",
            "ability": "int",
            "autoSpellLevelCalculation": true,
            "autoSpellLevels": true,
            "arcaneSpellFailure": true,
            "hasCantrips": true,
            "spellPreparationMode": "spontaneous",
            "baseDCFormula": "10 + @sl + @ablMod",
            "spontaneous": false,
            "spellPoints": {
              "useSystem": false,
              "value": 0,
              "max": 0,
              "maxFormula": "",
              "restoreFormula": ""
            },
            "spells": {
              "spell0": {
                "castPerDayOffsetFormula": "",
                "preparedOffsetFormula": ""
              },
              "spell1": {
                "castPerDayOffsetFormula": "",
                "preparedOffsetFormula": ""
              },
              "spell2": {
                "castPerDayOffsetFormula": "",
                "preparedOffsetFormula": ""
              },
              "spell3": {
                "castPerDayOffsetFormula": "",
                "preparedOffsetFormula": ""
              },
              "spell4": {
                "castPerDayOffsetFormula": "",
                "preparedOffsetFormula": ""
              },
              "spell5": {
                "castPerDayOffsetFormula": "",
                "preparedOffsetFormula": ""
              },
              "spell6": {
                "castPerDayOffsetFormula": "",
                "preparedOffsetFormula": ""
              },
              "spell7": {
                "castPerDayOffsetFormula": "",
                "preparedOffsetFormula": ""
              },
              "spell8": {
                "castPerDayOffsetFormula": "",
                "preparedOffsetFormula": ""
              },
              "spell9": {
                "castPerDayOffsetFormula": "",
                "preparedOffsetFormula": ""
              }
            },
            "spellSlotAbilityBonusFormula": "",
            "domainSlotValue": 1
          },
          "tertiary": {
            "altName": "",
            "castPerDayAllOffsetFormula": "",
            "preparedAllOffsetFormula": "",
            "name": "Tertiary",
            "casterType": "high",
            "class": "",
            "cl": {
              "base": 0,
              "value": 0,
              "total": 0,
              "formula": ""
            },
            "concentration": 0,
            "concentrationFormula": "",
            "concentrationNotes": "",
            "clNotes": "",
            "ability": "int",
            "autoSpellLevelCalculation": true,
            "autoSpellLevels": true,
            "arcaneSpellFailure": true,
            "hasCantrips": true,
            "spellPreparationMode": "spontaneous",
            "baseDCFormula": "10 + @sl + @ablMod",
            "spontaneous": false,
            "spellPoints": {
              "useSystem": false,
              "value": 0,
              "max": 0,
              "maxFormula": "",
              "restoreFormula": ""
            },
            "spells": {
              "spell0": {
                "castPerDayOffsetFormula": "",
                "preparedOffsetFormula": ""
              },
              "spell1": {
                "castPerDayOffsetFormula": "",
                "preparedOffsetFormula": ""
              },
              "spell2": {
                "castPerDayOffsetFormula": "",
                "preparedOffsetFormula": ""
              },
              "spell3": {
                "castPerDayOffsetFormula": "",
                "preparedOffsetFormula": ""
              },
              "spell4": {
                "castPerDayOffsetFormula": "",
                "preparedOffsetFormula": ""
              },
              "spell5": {
                "castPerDayOffsetFormula": "",
                "preparedOffsetFormula": ""
              },
              "spell6": {
                "castPerDayOffsetFormula": "",
                "preparedOffsetFormula": ""
              },
              "spell7": {
                "castPerDayOffsetFormula": "",
                "preparedOffsetFormula": ""
              },
              "spell8": {
                "castPerDayOffsetFormula": "",
                "preparedOffsetFormula": ""
              },
              "spell9": {
                "castPerDayOffsetFormula": "",
                "preparedOffsetFormula": ""
              }
            },
            "spellSlotAbilityBonusFormula": "",
            "domainSlotValue": 1
          },
          "spelllike": {
            "altName": "",
            "castPerDayAllOffsetFormula": "",
            "preparedAllOffsetFormula": "",
            "name": "Spell-likes",
            "casterType": "high",
            "class": "_hd",
            "cl": {
              "base": 0,
              "value": 0,
              "total": 0,
              "formula": ""
            },
            "concentration": 0,
            "concentrationFormula": "",
            "concentrationNotes": "",
            "clNotes": "",
            "ability": "cha",
            "autoSpellLevelCalculation": true,
            "autoSpellLevels": true,
            "arcaneSpellFailure": true,
            "hasCantrips": true,
            "spellPreparationMode": "spontaneous",
            "baseDCFormula": "10 + @sl + @ablMod",
            "spontaneous": false,
            "spellPoints": {
              "useSystem": false,
              "value": 0,
              "max": 0,
              "maxFormula": "",
              "restoreFormula": ""
            },
            "spells": {
              "spell0": {
                "castPerDayOffsetFormula": "",
                "preparedOffsetFormula": ""
              },
              "spell1": {
                "castPerDayOffsetFormula": "",
                "preparedOffsetFormula": ""
              },
              "spell2": {
                "castPerDayOffsetFormula": "",
                "preparedOffsetFormula": ""
              },
              "spell3": {
                "castPerDayOffsetFormula": "",
                "preparedOffsetFormula": ""
              },
              "spell4": {
                "castPerDayOffsetFormula": "",
                "preparedOffsetFormula": ""
              },
              "spell5": {
                "castPerDayOffsetFormula": "",
                "preparedOffsetFormula": ""
              },
              "spell6": {
                "castPerDayOffsetFormula": "",
                "preparedOffsetFormula": ""
              },
              "spell7": {
                "castPerDayOffsetFormula": "",
                "preparedOffsetFormula": ""
              },
              "spell8": {
                "castPerDayOffsetFormula": "",
                "preparedOffsetFormula": ""
              },
              "spell9": {
                "castPerDayOffsetFormula": "",
                "preparedOffsetFormula": ""
              }
            },
            "spellSlotAbilityBonusFormula": "",
            "domainSlotValue": 1
          }
        }
      },
      "spellcasting": {
        "_deprecated": true
      },
      "spelldc": {
        "_deprecated": true
      },
      "spellLevel": 0
    },
    "details": {
      "level": {
        "value": 0,
        "min": 0,
        "max": 40
      },
      "mythicTier": 0,
      "bonusFeatFormula": "",
      "alignment": "ne",
      "biography": {
        "value": "",
        "public": ""
      },
      "notes": {
        "value": "",
        "public": ""
      },
      "bonusSkillRankFormula": "",
      "tooltip": {
        "name": "",
        "hideHeld": false,
        "hideArmor": false,
        "hideBuffs": false,
        "hideConditions": false,
        "hideClothing": false,
        "hideName": false
      },
      "type": "",
      "environment": "",
      "cr": {
        "base": 2,
        "total": 2
      },
      "xp": {
        "value": 10
      }
    },
    "skills": {
      "acr": {
        "value": 0,
        "ability": "dex",
        "rt": false,
        "acp": true,
        "rank": 1,
        "mod": 0,
        "background": false
      },
      "apr": {
        "value": 0,
        "ability": "int",
        "rt": false,
        "acp": false,
        "rank": 0,
        "mod": 0,
        "background": true
      },
      "art": {
        "value": 0,
        "ability": "int",
        "rt": false,
        "acp": false,
        "rank": 0,
        "mod": 0,
        "background": true
      },
      "blf": {
        "value": 0,
        "ability": "cha",
        "rt": false,
        "acp": false,
        "rank": 2,
        "mod": 0,
        "background": false
      },
      "clm": {
        "value": 0,
        "ability": "str",
        "rt": false,
        "acp": true,
        "rank": 1,
        "mod": 0,
        "background": false
      },
      "crf": {
        "value": 0,
        "ability": "int",
        "rt": false,
        "acp": false,
        "rank": 0,
        "mod": 0,
        "background": true
      },
      "dip": {
        "value": 0,
        "ability": "cha",
        "rt": false,
        "acp": false,
        "rank": 0,
        "mod": 0,
        "background": false
      },
      "dev": {
        "value": 0,
        "ability": "dex",
        "rt": true,
        "acp": true,
        "rank": 1,
        "mod": 0,
        "background": false
      },
      "dis": {
        "value": 0,
        "ability": "cha",
        "rt": false,
        "acp": false,
        "rank": 0,
        "mod": 0,
        "background": false
      },
      "esc": {
        "value": 0,
        "ability": "dex",
        "rt": false,
        "acp": true,
        "rank": 1,
        "mod": 0,
        "background": false
      },
      "fly": {
        "value": 0,
        "ability": "dex",
        "rt": false,
        "acp": true,
        "rank": 0,
        "mod": 0,
        "background": false
      },
      "han": {
        "value": 0,
        "ability": "cha",
        "rt": true,
        "acp": false,
        "rank": 0,
        "mod": 0,
        "background": true
      },
      "hea": {
        "value": 0,
        "ability": "wis",
        "rt": false,
        "acp": false,
        "rank": 0,
        "mod": 0,
        "background": false
      },
      "int": {
        "value": 0,
        "ability": "cha",
        "rt": false,
        "acp": false,
        "rank": 0,
        "mod": 0,
        "background": false
      },
      "kar": {
        "value": 0,
        "ability": "int",
        "rt": true,
        "acp": false,
        "rank": 0,
        "mod": 0,
        "background": false
      },
      "kdu": {
        "value": 0,
        "ability": "int",
        "rt": true,
        "acp": false,
        "rank": 0,
        "mod": 0,
        "background": false
      },
      "ken": {
        "value": 0,
        "ability": "int",
        "rt": true,
        "acp": false,
        "rank": 0,
        "mod": 0,
        "background": true
      },
      "kge": {
        "value": 0,
        "ability": "int",
        "rt": true,
        "acp": false,
        "rank": 0,
        "mod": 0,
        "background": true
      },
      "khi": {
        "value": 0,
        "ability": "int",
        "rt": true,
        "acp": false,
        "rank": 0,
        "mod": 0,
        "background": true
      },
      "klo": {
        "value": 0,
        "ability": "int",
        "rt": true,
        "acp": false,
        "rank": 2,
        "mod": 0,
        "background": false
      },
      "kna": {
        "value": 0,
        "ability": "int",
        "rt": true,
        "acp": false,
        "rank": 0,
        "mod": 0,
        "background": false
      },
      "kno": {
        "value": 0,
        "ability": "int",
        "rt": true,
        "acp": false,
        "rank": 0,
        "mod": 0,
        "background": true
      },
      "kpl": {
        "value": 0,
        "ability": "int",
        "rt": true,
        "acp": false,
        "rank": 0,
        "mod": 0,
        "background": false
      },
      "kre": {
        "value": 0,
        "ability": "int",
        "rt": true,
        "acp": false,
        "rank": 0,
        "mod": 0,
        "background": false
      },
      "lin": {
        "value": 0,
        "ability": "int",
        "rt": true,
        "acp": false,
        "rank": 0,
        "mod": 0,
        "background": true
      },
      "lor": {
        "value": 0,
        "ability": "int",
        "rt": true,
        "acp": false,
        "rank": 0,
        "mod": 0,
        "background": true
      },
      "per": {
        "value": 0,
        "ability": "wis",
        "rt": false,
        "acp": false,
        "rank": 2,
        "mod": 0,
        "background": false
      },
      "prf": {
        "value": 0,
        "ability": "cha",
        "rt": false,
        "acp": false,
        "rank": 0,
        "mod": 0,
        "background": true
      },
      "pro": {
        "value": 0,
        "ability": "wis",
        "rt": true,
        "acp": false,
        "rank": 0,
        "mod": 0,
        "background": true
      },
      "rid": {
        "value": 0,
        "ability": "dex",
        "rt": false,
        "acp": true,
        "rank": 0,
        "mod": 0,
        "background": false
      },
      "sen": {
        "value": 0,
        "ability": "wis",
        "rt": false,
        "acp": false,
        "rank": 0,
        "mod": 0,
        "background": false
      },
      "slt": {
        "value": 0,
        "ability": "dex",
        "rt": true,
        "acp": true,
        "rank": 0,
        "mod": 0,
        "background": true
      },
      "spl": {
        "value": 0,
        "ability": "int",
        "rt": true,
        "acp": false,
        "rank": 0,
        "mod": 0,
        "background": false
      },
      "ste": {
        "value": 0,
        "ability": "dex",
        "rt": false,
        "acp": true,
        "rank": 1,
        "mod": 0,
        "background": false
      },
      "sur": {
        "value": 0,
        "ability": "wis",
        "rt": false,
        "acp": false,
        "rank": 0,
        "mod": 0,
        "background": false
      },
      "swm": {
        "value": 0,
        "ability": "str",
        "rt": false,
        "acp": true,
        "rank": 0,
        "mod": 0,
        "background": false
      },
      "umd": {
        "value": 0,
        "ability": "cha",
        "rt": true,
        "acp": false,
        "rank": 0,
        "mod": 0,
        "background": false
      }
    },
    "customSkills": {},
    "traits": {
      "size": "med",
      "senses": "darkvision 60 ft.; Perception +7",
      "dr": "",
      "eres": "",
      "cres": "",
      "regen": "",
      "fastHealing": "",
      "languages": {
        "value": [
          "common"
        ],
        "custom": ""
      },
      "di": {
        "value": [],
        "custom": ""
      },
      "dv": {
        "value": [],
        "custom": ""
      },
      "ci": {
        "value": [],
        "custom": ""
      },
      "perception": {
        "_deprecated": true
      },
      "stature": ""
    },
    "currency": {
      "pp": 0,
      "gp": 0,
      "sp": 0,
      "cp": 0
    },
    "altCurrency": {
      "pp": 0,
      "gp": 0,
      "sp": 0,
      "cp": 0
    }
  },
  "token": {
    "name": "Werespider (human Form)",
    "displayName": 20,
    "actorLink": false,
    "width": 1,
    "height": 1,
    "scale": 1,
    "mirrorX": false,
    "mirrorY": false,
    "lockRotation": false,
    "rotation": 0,
    "alpha": 1,
    "vision": false,
    "dimSight": 0,
    "brightSight": "60",
    "dimLight": 0,
    "brightLight": 0,
    "sightAngle": 0,
    "lightAngle": 0,
    "lightAlpha": 0.25,
    "lightAnimation": {
      "speed": 5,
      "intensity": 5
    },
    "disposition": -1,
    "displayBars": 20,
    "bar1": {
      "attribute": null
    },
    "bar2": {
      "attribute": null
    },
    "flags": {},
    "randomImg": false,
    "img": "systems/pf1/icons/races/human.jpg"
  },
  "items": [
    {
      "_id": "e6IaBxKgMxy1yKlr",
      "name": "Human",
      "type": "race",
      "img": "systems/pf1/icons/races/human.jpg",
      "data": {
        "description": {
          "value": "<h2>Starting Age</h2>\n<table style=\"border-spacing: 0px; background-color: #ffffff; margin: 10px; table-layout: fixed; border-color: #888888; min-width: 200px; color: #333333; font-family: Varela, sans-serif;\" border=\"1\" cellpadding=\"5\">\n<thead style=\"box-sizing: border-box; background-color: #cfe2f3;\">\n<tr style=\"box-sizing: border-box;\">\n<th class=\"text\" style=\"box-sizing: border-box; padding: 2px; text-align: left; border: 1px solid #888888;\">Adulthood</th>\n<th class=\"text\" style=\"box-sizing: border-box; padding: 2px; text-align: left; border: 1px solid #888888;\">Intuitive<span style=\"box-sizing: border-box; position: relative; font-size: 10px; line-height: 0; vertical-align: baseline; top: -0.5em;\">1</span></th>\n<th class=\"text\" style=\"box-sizing: border-box; padding: 2px; text-align: left; border: 1px solid #888888;\">Self-Taught<span style=\"box-sizing: border-box; position: relative; font-size: 10px; line-height: 0; vertical-align: baseline; top: -0.5em;\">2</span></th>\n<th class=\"text\" style=\"box-sizing: border-box; padding: 2px; text-align: left; border: 1px solid #888888;\">Trained<span style=\"box-sizing: border-box; position: relative; font-size: 10px; line-height: 0; vertical-align: baseline; top: -0.5em;\">3</span></th>\n</tr>\n</thead>\n<tbody style=\"box-sizing: border-box;\">\n<tr style=\"box-sizing: border-box;\">\n<td class=\"text\" style=\"box-sizing: border-box; padding: 2px; vertical-align: top; border: 1px solid #888888;\">15 years</td>\n<td class=\"text\" style=\"box-sizing: border-box; padding: 2px; vertical-align: top; border: 1px solid #888888;\">+1d4 years<br style=\"box-sizing: border-box;\">(16 – 19 years)</td>\n<td class=\"text\" style=\"box-sizing: border-box; padding: 2px; vertical-align: top; border: 1px solid #888888;\">+1d6 years<br style=\"box-sizing: border-box;\">(16 – 21 years)</td>\n<td class=\"text\" style=\"box-sizing: border-box; padding: 2px; vertical-align: top; border: 1px solid #888888;\">+2d6 years<br style=\"box-sizing: border-box;\">(17 – 27 years)</td>\n</tr>\n</tbody>\n</table>\n<p><sup>1</sup>&nbsp;This category includes barbarians, oracles, rogues, and sorcerers.<br><sup>2</sup>&nbsp;This category includes bards, cavaliers, fighters, gunslingers, paladins, rangers, summoners, and witches.<br><sup>3</sup>&nbsp;This category includes alchemists, clerics, druids, inquisitors, magi, monks, and wizards.</p>\n<h2>Height and Weight</h2>\n<table style=\"border-spacing: 0px; background-color: #ffffff; margin: 10px; table-layout: fixed; border-color: #888888; min-width: 200px; color: #333333; font-family: Varela, sans-serif;\" border=\"1\" cellpadding=\"5\">\n<thead style=\"box-sizing: border-box; background-color: #cfe2f3;\">\n<tr style=\"box-sizing: border-box;\">\n<th class=\"text\" style=\"box-sizing: border-box; padding: 2px; text-align: left; border: 1px solid #888888;\">Gender</th>\n<th class=\"text\" style=\"box-sizing: border-box; padding: 2px; text-align: left; border: 1px solid #888888;\">Base Height</th>\n<th class=\"text\" style=\"box-sizing: border-box; padding: 2px; text-align: left; border: 1px solid #888888;\">Height Modifier</th>\n<th class=\"text\" style=\"box-sizing: border-box; padding: 2px; text-align: left; border: 1px solid #888888;\">Base Weight</th>\n<th class=\"text\" style=\"box-sizing: border-box; padding: 2px; text-align: left; border: 1px solid #888888;\">Weight Modifier</th>\n</tr>\n</thead>\n<tbody style=\"box-sizing: border-box;\">\n<tr style=\"box-sizing: border-box;\">\n<td class=\"text\" style=\"box-sizing: border-box; padding: 2px; vertical-align: top; border: 1px solid #888888;\">Male</td>\n<td class=\"text\" style=\"box-sizing: border-box; padding: 2px; vertical-align: top; border: 1px solid #888888;\">4 ft. 10 in.</td>\n<td class=\"text\" style=\"box-sizing: border-box; padding: 2px; vertical-align: top; border: 1px solid #888888;\">+2d10 in.<br style=\"box-sizing: border-box;\">(5 ft – 6 ft. 6 in.)</td>\n<td class=\"text\" style=\"box-sizing: border-box; padding: 2px; vertical-align: top; border: 1px solid #888888;\">120 lbs.</td>\n<td class=\"text\" style=\"box-sizing: border-box; padding: 2px; vertical-align: top; border: 1px solid #888888;\">+(2d10×5 lbs.)<br style=\"box-sizing: border-box;\">(130 – 220 lbs.)</td>\n</tr>\n<tr style=\"box-sizing: border-box; background-color: #f3f3f3;\">\n<td class=\"text\" style=\"box-sizing: border-box; padding: 2px; vertical-align: top; border: 1px solid #888888;\">Female</td>\n<td class=\"text\" style=\"box-sizing: border-box; padding: 2px; vertical-align: top; border: 1px solid #888888;\">4 ft. 5 in.</td>\n<td class=\"text\" style=\"box-sizing: border-box; padding: 2px; vertical-align: top; border: 1px solid #888888;\">+2d10 in.<br style=\"box-sizing: border-box;\">(4 ft. 7 in. – 6 ft. 1 in.)</td>\n<td class=\"text\" style=\"box-sizing: border-box; padding: 2px; vertical-align: top; border: 1px solid #888888;\">85 lbs.</td>\n<td class=\"text\" style=\"box-sizing: border-box; padding: 2px; vertical-align: top; border: 1px solid #888888;\">+(2d10×5 lbs.)<br style=\"box-sizing: border-box;\">(95 – 185 lbs.)</td>\n</tr>\n</tbody>\n</table>\n<h2>Standard Racial Traits</h2>\n<ul>\n<li><strong>Ability Score Modifiers</strong>: Human characters gain a +2&nbsp;<a href=\"https://www.d20pfsrd.com/basics-ability-scores/glossary#TOC-Racial-Bonus\">racial bonus</a>&nbsp;to one ability score of their choice at creation to represent their varied nature.</li>\n<li><strong>Size</strong>: Humans are Medium creatures and thus receive no bonuses or penalties due to their size.</li>\n<li><strong>Base Speed</strong>: Humans have a base speed of 30 feet.</li>\n<li><strong>Languages</strong>: Humans begin play speaking Common. Humans with high&nbsp;<a href=\"https://www.d20pfsrd.com/basics-ability-scores/ability-scores#TOC-Intelligence-Int-\">Intelligence</a>&nbsp;scores can choose any languages they want (except secret languages, such as Druidic). See the&nbsp;<a href=\"https://www.d20pfsrd.com/skills/linguistics\">Linguistics skill page</a>&nbsp;for more information about these languages.</li>\n</ul>\n<h3>Feat and Skill Racial Traits</h3>\n<ul>\n<li><strong>Bonus Feat</strong>: Humans select one extra feat at 1st level.</li>\n<li><strong>Skilled</strong>: Humans gain an additional skill rank at first level and one additional rank whenever they gain a level.</li>\n</ul>",
          "chat": "",
          "unidentified": ""
        },
        "tags": [],
        "changes": [
          {
            "_id": "ywxkp0hu",
            "formula": "1",
            "operator": "add",
            "subTarget": "bonusFeats",
            "modifier": "untyped",
            "priority": 0,
            "value": 0,
            "target": "misc"
          },
          {
            "_id": "ahb0k14u",
            "formula": "@attributes.hd.total",
            "operator": "add",
            "subTarget": "bonusSkillRanks",
            "modifier": "untyped",
            "priority": 0,
            "value": 0,
            "target": "skills"
          }
        ],
        "changeFlags": {
          "loseDexToAC": false,
          "noEncumbrance": false,
          "mediumArmorFullSpeed": false,
          "heavyArmorFullSpeed": false,
          "noStr": false,
          "noDex": false,
          "oneInt": false,
          "oneWis": false,
          "oneCha": false
        },
        "contextNotes": [],
        "links": {
          "children": []
        },
        "armorProf": {
          "value": [],
          "custom": ""
        },
        "weaponProf": {
          "value": [],
          "custom": ""
        },
        "flags": {
          "boolean": [],
          "dictionary": []
        },
        "scriptCalls": [],
        "creatureType": "humanoid",
        "subTypes": [
          [
            "Human"
          ]
        ],
        "damage": {
          "parts": []
        },
        "uses": {
          "value": 0,
          "max": 0
        }
      },
      "effects": [],
      "folder": null,
      "sort": 0,
      "permission": {
        "default": 0
      },
      "flags": {}
    },
    {
      "_id": "24b0LaabeAlUx5gN",
      "name": "Rogue (Augmented Humanoid)",
      "type": "class",
      "img": "systems/pf1/icons/items/inventory/lockpick.jpg",
      "data": {
        "description": {
          "value": "<p>Life is an endless adventure for those who live by their wits. Ever just one step ahead of danger, rogues bank on their cunning, skill, and charm to bend fate to their favor. Never knowing what to expect, they prepare for everything, becoming masters of a wide variety of skills, training themselves to be adept manipulators, agile acrobats, shadowy stalkers, or masters of any of dozens of other professions or talents. Thieves and gamblers, fast talkers and diplomats, bandits and bounty hunters, and explorers and investigators all might be considered rogues, as well as countless other professions that rely upon wits, prowess, or luck. Although many rogues favor cities and the innumerable opportunities of civilization, some embrace lives on the road, journeying far, meeting exotic people, and facing fantastic danger in pursuit of equally fantastic riches. In the end, any who desire to shape their fates and live life on their own terms might come to be called rogues.</p>\n<p>Role: Rogues excel at moving about unseen and catching foes unaware, and tend to avoid head-to-head combat. Their varied skills and abilities allow them to be highly versatile, with great variations in expertise existing between different rogues. Most, however, excel in overcoming hindrances of all types, from unlocking doors and disarming traps to outwitting magical hazards and conning dull-witted opponents.</p>\n<p><strong>Alignment</strong>: Any</p>\n<p><strong>Hit Die</strong>: d8</p>\n<p><strong>Starting Wealth</strong>: 4d6 × 10 gp (average 140 gp.) In addition, each character begins play with an outfit worth 10 gp or less.</p>\n<h3><strong><span id=\"Class_Skills\">Class Skills</span></strong></h3>\n<p>The rogue’s class skills are <a href=\"https://www.d20pfsrd.com/skills/acrobatics\">Acrobatics</a>&nbsp;(<a href=\"https://www.d20pfsrd.com/basics-ability-scores/ability-scores#TOC-Dexterity-Dex-\">Dex</a>), <a href=\"https://www.d20pfsrd.com/skills/appraise\">Appraise</a>&nbsp;(<a href=\"https://www.d20pfsrd.com/basics-ability-scores/ability-scores#TOC-Intelligence-Int-\">Int</a>), <a href=\"https://www.d20pfsrd.com/skills/bluff\">Bluff</a>&nbsp;(<a href=\"https://www.d20pfsrd.com/basics-ability-scores/ability-scores#TOC-Charisma-Cha-\">Cha</a>), <a href=\"https://www.d20pfsrd.com/skills/climb\">Climb</a>&nbsp;(<a href=\"https://www.d20pfsrd.com/basics-ability-scores/ability-scores#TOC-Strength-Str-\">Str</a>), <a href=\"https://www.d20pfsrd.com/skills/craft\">Craft</a>&nbsp;(<a href=\"https://www.d20pfsrd.com/basics-ability-scores/ability-scores#TOC-Intelligence-Int-\">Int</a>), <a href=\"https://www.d20pfsrd.com/skills/diplomacy\">Diplomacy</a>&nbsp;(<a href=\"https://www.d20pfsrd.com/basics-ability-scores/ability-scores#TOC-Charisma-Cha-\">Cha</a>), <a href=\"https://www.d20pfsrd.com/skills/disable-device\">Disable Device</a>&nbsp;(<a href=\"https://www.d20pfsrd.com/basics-ability-scores/ability-scores#TOC-Dexterity-Dex-\">Dex</a>), <a href=\"https://www.d20pfsrd.com/skills/disguise\">Disguise</a>&nbsp;(<a href=\"https://www.d20pfsrd.com/basics-ability-scores/ability-scores#TOC-Charisma-Cha-\">Cha</a>), <a href=\"https://www.d20pfsrd.com/skills/escape-artist\">Escape Artist</a>&nbsp;(<a href=\"https://www.d20pfsrd.com/basics-ability-scores/ability-scores#TOC-Dexterity-Dex-\">Dex</a>), <a href=\"https://www.d20pfsrd.com/skills/intimidate\">Intimidate</a>&nbsp;(<a href=\"https://www.d20pfsrd.com/basics-ability-scores/ability-scores#TOC-Charisma-Cha-\">Cha</a>), <a href=\"https://www.d20pfsrd.com/skills/knowledge\">Knowledge</a>&nbsp;(dungeoneering) (<a href=\"https://www.d20pfsrd.com/basics-ability-scores/ability-scores#TOC-Intelligence-Int-\">Int</a>), <a href=\"https://www.d20pfsrd.com/skills/knowledge\">Knowledge</a>&nbsp;(local) (<a href=\"https://www.d20pfsrd.com/basics-ability-scores/ability-scores#TOC-Intelligence-Int-\">Int</a>), <a href=\"https://www.d20pfsrd.com/skills/linguistics\">Linguistics</a>&nbsp;(<a href=\"https://www.d20pfsrd.com/basics-ability-scores/ability-scores#TOC-Intelligence-Int-\">Int</a>), <a href=\"https://www.d20pfsrd.com/skills/perception\">Perception</a>&nbsp;(<a href=\"https://www.d20pfsrd.com/basics-ability-scores/ability-scores#TOC-Wisdom-Wis-\">Wis</a>), <a href=\"https://www.d20pfsrd.com/skills/perform\">Perform</a>&nbsp;(<a href=\"https://www.d20pfsrd.com/basics-ability-scores/ability-scores#TOC-Charisma-Cha-\">Cha</a>), <a href=\"https://www.d20pfsrd.com/skills/profession\">Profession</a>&nbsp;(<a href=\"https://www.d20pfsrd.com/basics-ability-scores/ability-scores#TOC-Wisdom-Wis-\">Wis</a>), <a href=\"https://www.d20pfsrd.com/skills/sense-motive\">Sense Motive</a>&nbsp;(<a href=\"https://www.d20pfsrd.com/basics-ability-scores/ability-scores#TOC-Wisdom-Wis-\">Wis</a>), <a href=\"https://www.d20pfsrd.com/skills/sleight-of-hand\">Sleight of Hand</a>&nbsp;(<a href=\"https://www.d20pfsrd.com/basics-ability-scores/ability-scores#TOC-Dexterity-Dex-\">Dex</a>), <a href=\"https://www.d20pfsrd.com/skills/stealth\">Stealth</a>&nbsp;(<a href=\"https://www.d20pfsrd.com/basics-ability-scores/ability-scores#TOC-Dexterity-Dex-\">Dex</a>), <a href=\"https://www.d20pfsrd.com/skills/swim\">Swim</a>&nbsp;(<a href=\"https://www.d20pfsrd.com/basics-ability-scores/ability-scores#TOC-Strength-Str-\">Str</a>), and <a href=\"https://www.d20pfsrd.com/skills/use-magic-device\">Use Magic Device</a>&nbsp;(<a href=\"https://www.d20pfsrd.com/basics-ability-scores/ability-scores#TOC-Charisma-Cha-\">Cha</a>).</p>\n<p><strong>Skill Ranks per Level</strong>: 8 +&nbsp;<a href=\"https://www.d20pfsrd.com/basics-ability-scores/ability-scores#TOC-Intelligence-Int-\">Int</a>&nbsp;modifier.</p>",
          "chat": "",
          "unidentified": ""
        },
        "tags": [],
        "changes": [],
        "changeFlags": {
          "loseDexToAC": false,
          "noEncumbrance": false,
          "mediumArmorFullSpeed": false,
          "heavyArmorFullSpeed": false,
          "noStr": false,
          "noDex": false,
          "oneInt": false,
          "oneWis": false,
          "oneCha": false
        },
        "links": {
          "children": [],
          "classAssociations": [
            {
              "id": "pf1.class-abilities.6pjr8jMFSKqXkBKk",
              "dataType": "compendium",
              "name": "Sneak Attack (ROG)",
              "img": "systems/pf1/icons/skills/red_13.jpg",
              "hiddenLinks": {},
              "level": 1,
              "_index": 0
            },
            {
              "id": "pf1.class-abilities.pEODJDoTk7uhCZY7",
              "dataType": "compendium",
              "name": "Trapfinding",
              "img": "systems/pf1/icons/items/inventory/lockpick.jpg",
              "hiddenLinks": {},
              "level": 1,
              "_index": 1
            },
            {
              "id": "pf1.class-abilities.BoEkMviJrW0PKmhj",
              "dataType": "compendium",
              "name": "Trap Sense",
              "img": "systems/pf1/icons/items/inventory/hook-hand.jpg",
              "hiddenLinks": {},
              "level": 3,
              "_index": 2
            },
            {
              "id": "pf1.class-abilities.iBTrvPtn3jczInbn",
              "dataType": "compendium",
              "name": "Rogue Talents",
              "img": "systems/pf1/icons/feats/acrobatic.jpg",
              "hiddenLinks": {},
              "level": 2,
              "_index": 3
            },
            {
              "id": "pf1.class-abilities.KQYCRLEdD4bGA5ak",
              "dataType": "compendium",
              "name": "Evasion",
              "img": "systems/pf1/icons/skills/blue_06.jpg",
              "hiddenLinks": {},
              "level": 2,
              "_index": 4
            },
            {
              "id": "pf1.class-abilities.7WaQxnVaaoL4AGr8",
              "dataType": "compendium",
              "name": "Uncanny Dodge",
              "img": "systems/pf1/icons/feats/wind-stance.jpg",
              "hiddenLinks": {},
              "level": 3,
              "_index": 5
            },
            {
              "id": "pf1.class-abilities.ZfnHhhTFQVo0Lj4P",
              "dataType": "compendium",
              "name": "Improved Uncanny Dodge",
              "img": "systems/pf1/icons/feats/wind-stance.jpg",
              "hiddenLinks": {},
              "level": 8,
              "_index": 6
            },
            {
              "id": "pf1.class-abilities.EQ7JGo4P1XirLO46",
              "dataType": "compendium",
              "name": "Advanced Talents",
              "img": "systems/pf1/icons/feats/agile-maneuvers.jpg",
              "hiddenLinks": {},
              "level": 10,
              "_index": 7
            },
            {
              "id": "pf1.class-abilities.KmVwFz2ajNtvgvbp",
              "dataType": "compendium",
              "name": "Master Strike",
              "img": "systems/pf1/icons/feats/greater-vital-strike.jpg",
              "hiddenLinks": {},
              "level": 20,
              "_index": 8
            }
          ]
        },
        "tag": "rogue",
        "useCustomTag": true,
        "armorProf": {
          "value": [
            "lgt"
          ],
          "custom": ""
        },
        "weaponProf": {
          "value": [
            "sim"
          ],
          "custom": "Hand Crossbow;Rapier;Sap;Shortbow;Short Sword"
        },
        "flags": {
          "boolean": [],
          "dictionary": []
        },
        "scriptCalls": [],
        "classType": "base",
        "levels": {
          "value": 0,
          "_deprecated": true
        },
        "level": 2,
        "hd": 8,
        "hp": 12,
        "bab": "med",
        "skillsPerLevel": 8,
        "savingThrows": {
          "fort": {
            "value": "low"
          },
          "ref": {
            "value": "high"
          },
          "will": {
            "value": "low"
          }
        },
        "fc": {
          "hp": {
            "value": 0
          },
          "skill": {
            "value": 0
          },
          "alt": {
            "value": 0
          }
        },
        "classSkills": {
          "acr": true,
          "apr": true,
          "art": false,
          "blf": true,
          "clm": true,
          "crf": true,
          "dip": true,
          "dev": true,
          "dis": true,
          "esc": true,
          "fly": false,
          "han": false,
          "hea": false,
          "int": true,
          "kar": false,
          "kdu": true,
          "ken": false,
          "kge": false,
          "khi": false,
          "klo": true,
          "kna": false,
          "kno": false,
          "kpl": false,
          "kre": false,
          "lin": true,
          "lor": false,
          "per": true,
          "prf": true,
          "pro": true,
          "rid": false,
          "sen": true,
          "slt": true,
          "spl": false,
          "ste": true,
          "sur": false,
          "swm": true,
          "umd": true
        },
        "extraDescription": {
          "value": "<h2>Weapon and Armor Proficiency</h2>\n<p>Rogues are proficient with all&nbsp;<a href=\"https://www.d20pfsrd.com/equipment/weapons#simple-martial-and-exotic-weapons\">simple weapons</a>, plus the hand crossbow, rapier, sap, shortbow, and short sword. They are proficient with light&nbsp;<a href=\"https://www.d20pfsrd.com/basics-ability-scores/glossary#TOC-Armor-Bonus\">armor</a>, but not with shields.</p>\n<h2>Sneak Attack</h2>\n<p>If a rogue can catch an opponent when he is unable to defend himself effectively from her attack, she can strike a vital spot for extra damage.</p>\n<p>The rogue’s attack deals extra damage anytime her target would be denied a&nbsp;<a href=\"https://www.d20pfsrd.com/basics-ability-scores/ability-scores#TOC-Dexterity-Dex-\">Dexterity</a>&nbsp;bonus to&nbsp;<a href=\"https://www.d20pfsrd.com/gamemastering/combat#TOC-Armor-Class\">AC</a>&nbsp;(whether the target actually has a&nbsp;<a href=\"https://www.d20pfsrd.com/basics-ability-scores/ability-scores#TOC-Dexterity-Dex-\">Dexterity</a>&nbsp;bonus or not), or when the rogue flanks her target. This extra damage is 1d6 at 1st level, and increases by 1d6 every two rogue levels thereafter. Should the rogue score a&nbsp;<a href=\"https://www.d20pfsrd.com/gamemastering/combat#critical-hits\">critical hit</a>&nbsp;with a sneak attack, this extra damage is not multiplied. Ranged attacks can count as sneak attacks only if the target is within 30 feet.</p>\n<p>With a weapon that deals nonlethal damage (like a sap, whip, or an unarmed strike), a rogue can make a sneak attack that deals nonlethal damage instead of lethal damage. She cannot use a weapon that deals lethal damage to deal nonlethal damage in a sneak attack, not even with the usual –4 penalty.</p>\n<p>The rogue must be able to see the target well enough to pick out a vital spot and must be able to reach such a spot. A rogue cannot sneak attack while striking a creature with concealment.</p>\n<h2>Trapfinding</h2>\n<p>A rogue adds 1/2 her level to&nbsp;<a href=\"https://www.d20pfsrd.com/skills/perception\">Perception</a>&nbsp;<a href=\"https://www.d20pfsrd.com/skills#skill-checks\">skill checks</a>&nbsp;made to locate traps and to&nbsp;<a href=\"https://www.d20pfsrd.com/skills/disable-device\">Disable Device</a>&nbsp;<a href=\"https://www.d20pfsrd.com/skills#skill-checks\">skill checks</a>&nbsp;(minimum +1). A rogue can use&nbsp;<a href=\"https://www.d20pfsrd.com/skills/disable-device\">Disable Device</a>&nbsp;to disarm magic traps.</p>\n<h2>Evasion (Ex)</h2>\n<p>At 2nd level and higher, a rogue can avoid even magical and unusual attacks with great agility. If she makes a successful&nbsp;<a href=\"https://www.d20pfsrd.com/gamemastering/combat#TOC-Reflex\">Reflex</a>&nbsp;<a href=\"https://www.d20pfsrd.com/gamemastering/combat#saving-throws\">saving throw</a>&nbsp;against an attack that normally deals half damage on a successful save, she instead takes no damage. Evasion can be used only if the rogue is wearing light armor or no armor. A&nbsp;<a href=\"https://www.d20pfsrd.com/basics-ability-scores/glossary#helpless\">helpless</a>&nbsp;rogue does not gain the benefit of evasion.</p>\n<h2>Rogue Talents</h2>\n<p>As a rogue gains experience, she learns a number of talents that aid her and confound her foes. Starting at 2nd level, a rogue gains one rogue talent. She gains an additional rogue talent for every 2 levels of rogue attained after 2nd level. A rogue cannot select an individual talent more than once.</p>\n<p>Talents marked with an asterisk add effects to a rogue’s sneak attack. Only one of these talents can be applied to an individual attack and the decision must be made before the attack roll is made.</p>\n<p>A rogue cannot choose a ninja trick with the same name as a rogue talent.</p>\n<ul>\n<li>A complete listing of rogue talents can be found here:&nbsp;<a href=\"https://www.d20pfsrd.com/classes/core-classes/rogue/rogue-talents/\">Rogue Talents</a></li>\n</ul>\n<h2>Trap Sense (Ex)</h2>\n<p>At 3rd level, a rogue gains an intuitive sense that alerts her to danger from traps, giving her a +1 bonus on&nbsp;<a href=\"https://www.d20pfsrd.com/gamemastering/combat#TOC-Reflex\">Reflex saves</a>&nbsp;made to avoid traps and a +1&nbsp;<a href=\"https://www.d20pfsrd.com/gamemastering/combat#dodge-bonuses\">dodge bonus</a>&nbsp;to&nbsp;<a href=\"https://www.d20pfsrd.com/gamemastering/combat#TOC-Armor-Class\">AC</a>&nbsp;against attacks made by traps. These bonuses rise to +2 when the rogue reaches 6th level, to +3 when she reaches 9th level, to +4 when she reaches 12th level, to +5 at 15th, and to +6 at 18th level. Trap sense bonuses gained from multiple classes stack.</p>\n<h2>Uncanny Dodge (Ex)</h2>\n<p>Starting at 4th level, a rogue can react to danger before her senses would normally allow her to do so. She cannot be caught&nbsp;<a href=\"https://www.d20pfsrd.com/gamemastering/conditions#TOC-Flat-Footed\">flat-footed</a>, nor does she lose her&nbsp;<a href=\"https://www.d20pfsrd.com/basics-ability-scores/ability-scores#TOC-Dexterity-Dex-\">Dex</a>&nbsp;bonus to AC if the attacker is&nbsp;<a href=\"https://www.d20pfsrd.com/basics-ability-scores/glossary#invisible\">invisible</a>. She still loses her&nbsp;<a href=\"https://www.d20pfsrd.com/basics-ability-scores/ability-scores#TOC-Dexterity-Dex-\">Dexterity</a>&nbsp;bonus to&nbsp;<a href=\"https://www.d20pfsrd.com/gamemastering/combat#TOC-Armor-Class\">AC</a>&nbsp;if immobilized. A rogue with this ability can still lose her&nbsp;<a href=\"https://www.d20pfsrd.com/basics-ability-scores/ability-scores#TOC-Dexterity-Dex-\">Dexterity</a>&nbsp;bonus to&nbsp;<a href=\"https://www.d20pfsrd.com/gamemastering/combat#TOC-Armor-Class\">AC</a>&nbsp;if an opponent successfully uses the feint action (see&nbsp;<a href=\"https://www.d20pfsrd.com/gamemastering/combat\">Combat</a>) against her.</p>\n<p>If a rogue already has uncanny dodge from a different class, she automatically gains improved uncanny dodge (see below) instead.</p>\n<h2>Improved Uncanny Dodge (Ex)</h2>\n<p>A rogue of 8th level or higher can no longer be flanked.</p>\n<p>This defense denies another rogue the ability to sneak attack the character by flanking her, unless the attacker has at least four more rogue levels than the target does.</p>\n<p>If a character already has uncanny dodge (see above) from another class, the levels from the classes that grant uncanny dodge stack to determine the minimum rogue level required to flank the character.</p>\n<h2>Advanced Talents</h2>\n<p>At 10th level, and every two levels thereafter, a rogue can choose one of the following advanced talents in place of a rogue talent.</p>\n<ul>\n<li>A complete listing of advanced rogue talents can be found here:&nbsp;<a href=\"https://www.d20pfsrd.com/classes/core-classes/rogue/rogue-talents/#TABLE-Rogue-Adv-Talents\">Rogue Advanced Talents</a></li>\n</ul>\n<h2>Master Strike (Ex)</h2>\n<p>Upon reaching 20th level, a rogue becomes incredibly deadly when dealing sneak attack damage. Each time the rogue deals sneak attack damage, she can choose one of the following three effects:</p>\n<p>The target can be…</p>\n<ul>\n<li>put to sleep for 1d4 hours</li>\n<li><a href=\"https://www.d20pfsrd.com/gamemastering/conditions#TOC-Paralyzed\">paralyzed</a>&nbsp;for 2d6 rounds, or</li>\n<li>slain</li>\n</ul>\n<p>Regardless of the effect chosen, the target receives a&nbsp;<a href=\"https://www.d20pfsrd.com/gamemastering/combat#fortitude\">Fortitude</a>&nbsp;save to negate the additional effect. The DC of this save is equal to 10 + 1/2 the rogue’s level + the rogue’s&nbsp;<a href=\"https://www.d20pfsrd.com/basics-ability-scores/ability-scores#TOC-Intelligence-Int-\">Intelligence</a>&nbsp;modifier. Once a creature has been the target of a master strike, regardless of whether or not the save is made, that creature is immune to that rogue’s master strike for 24 hours. Creatures that are immune to sneak attack damage are also immune to this ability.</p>",
          "chat": "",
          "unidentified": ""
        },
        "damage": {
          "parts": [],
          "critParts": [],
          "nonCritParts": []
        },
        "preparation": {
          "maxAmount": 0
        },
        "weaponData": {
          "critRange": 20,
          "critMult": 2
        },
        "uses": {
          "value": 0,
          "max": 0
        }
      },
      "effects": [],
      "folder": null,
      "sort": 0,
      "permission": {
        "default": 0
      },
      "flags": {}
    },
    {
      "_id": "S38eYYsK7pRhPbwg",
      "name": "Humanoid (Human, Shapechanger)",
      "type": "class",
      "img": "systems/pf1/icons/skills/blue_35.jpg",
      "data": {
        "description": {
          "value": "<p>A humanoid usually has two arms, two legs, and one head, or a human-like torso, arms, and a head. Humanoids have few or no supernatural or extraordinary abilities, but most can speak and usually have well-developed societies. They are usually Small or Medium (with the exception of giants). Every humanoid creature also has a specific subtype to match its race, such as human, giant, goblinoid, reptilian, or tengu.</p>\n<p>Humanoids with 1 Hit Die exchange the features of their humanoid Hit Die for the class features of a PC or NPC class. Humanoids of this sort are typically presented as 1st-level warriors, which means they have average combat ability and poor saving throws. Humanoids with more than 1 Hit Die are the only humanoids who make use of the features of the humanoid type.</p>\n<h2><span id=\"Features\">Features</span></h2>\n<p>A humanoid has the following features (unless otherwise noted in a creature’s entry).</p>\n<ul>\n<li>d8 Hit Die, or by character class.</li>\n<li>Base attack bonus equal to 3/4 total Hit Dice (medium progression).</li>\n<li>One good save, usually&nbsp;<a href=\"https://www.d20pfsrd.com/gamemastering/combat#TOC-Reflex\" rel=\"nofollow\">Reflex</a>.</li>\n<li>Skill points equal to 2 + Int modifier (minimum 1) per Hit Die or by character class. The following are class skills for humanoids without a character class: <a href=\"https://www.d20pfsrd.com/skills/climb\" rel=\"nofollow\">Climb</a>, <a href=\"https://www.d20pfsrd.com/skills/craft\" rel=\"nofollow\">Craft</a>, <a href=\"https://www.d20pfsrd.com/skills/handle-animal\" rel=\"nofollow\">Handle Animal</a>, <a href=\"https://www.d20pfsrd.com/skills/heal\" rel=\"nofollow\">Heal</a>, <a href=\"https://www.d20pfsrd.com/skills/profession\" rel=\"nofollow\">Profession</a>, <a href=\"https://www.d20pfsrd.com/skills/ride\" rel=\"nofollow\">Ride</a>, and <a href=\"https://www.d20pfsrd.com/skills/survival\" rel=\"nofollow\">Survival</a>. Humanoids with a character class use their class’s skill list instead.</li>\n</ul>\n<h2><span id=\"Traits\"><a name=\"TOC-Traits\"></a>Traits</span></h2>\n<p>A humanoid possesses the following traits (unless otherwise noted in a creature’s entry).</p>\n<ul>\n<li>Proficient with all simple weapons, or by character class.</li>\n<li>Proficient with whatever type of armor (light, medium, or heavy) it is described as wearing, or by character class. If a humanoid does not have a class and wears&nbsp;<a href=\"https://www.d20pfsrd.com/basics-ability-scores/glossary#TOC-Armor-Bonus\">armor</a>, it is proficient with that type of armor and all lighter types. Humanoids not indicated as wearing armor are not proficient with armor. Humanoids are proficient with shields if they are proficient with any form of armor.</li>\n<li>Humanoids breathe, eat, and sleep.</li>\n</ul>",
          "chat": "",
          "unidentified": ""
        },
        "tags": [],
        "changes": [],
        "changeFlags": {
          "loseDexToAC": false,
          "noEncumbrance": false,
          "mediumArmorFullSpeed": false,
          "heavyArmorFullSpeed": false,
          "noStr": false,
          "noDex": false,
          "oneInt": false,
          "oneWis": false,
          "oneCha": false
        },
        "links": "",
        "tag": "humanoid",
        "useCustomTag": true,
        "armorProf": {
          "value": [],
          "custom": ""
        },
        "weaponProf": {
          "value": [],
          "custom": ""
        },
        "flags": {
          "boolean": [],
          "dictionary": []
        },
        "scriptCalls": [],
        "classType": "racial",
        "levels": 1,
        "level": 0,
        "hd": 8,
        "hp": 0,
        "bab": "med",
        "skillsPerLevel": 2,
        "savingThrows": {
          "fort": {
            "value": "low"
          },
          "ref": {
            "value": "high"
          },
          "will": {
            "value": "low"
          }
        },
        "fc": {
          "hp": {
            "value": 0
          },
          "skill": {
            "value": 0
          },
          "alt": {
            "value": 0
          }
        },
        "classSkills": {
          "acr": false,
          "apr": false,
          "art": false,
          "blf": false,
          "clm": true,
          "crf": true,
          "dip": false,
          "dev": false,
          "dis": false,
          "esc": false,
          "fly": false,
          "han": true,
          "hea": true,
          "int": false,
          "kar": false,
          "kdu": false,
          "ken": false,
          "kge": false,
          "khi": false,
          "klo": false,
          "kna": false,
          "kno": false,
          "kpl": false,
          "kre": false,
          "lin": false,
          "lor": false,
          "per": false,
          "prf": false,
          "pro": true,
          "rid": true,
          "sen": false,
          "slt": false,
          "spl": false,
          "ste": false,
          "sur": true,
          "swm": false,
          "umd": false
        },
        "damage": {
          "parts": []
        }
      },
      "effects": [],
      "folder": null,
      "sort": 0,
      "permission": {
        "default": 0
      },
      "flags": {}
    },
    {
      "_id": "dg77p53561b94bxk",
      "name": "Sense: Darkvision 60ft.",
      "type": "feat",
      "img": "systems/pf1/icons/skills/shadow_12.jpg",
      "data": {
        "description": {
          "value": "Darkvision is the extraordinary ability to see with no light source at all, out to a range specified for the creature. Darkvision is black-and-white only (colors cannot be discerned). It does not allow characters to see anything that they could not see otherwise—invisible objects are still invisible, and illusions are still visible as what they seem to be. Likewise, darkvision subjects a creature to gaze attacks normally. The presence of light does not spoil darkvision.",
          "chat": "",
          "unidentified": ""
        },
        "tags": [],
        "activation": {
          "cost": 1,
          "type": ""
        },
        "unchainedAction": {
          "activation": {
            "cost": 1,
            "type": ""
          }
        },
        "duration": {
          "value": null,
          "units": ""
        },
        "target": {
          "value": ""
        },
        "range": {
          "value": null,
          "units": "",
          "maxIncrements": 1,
          "minValue": null,
          "minUnits": ""
        },
        "uses": {
          "value": 0,
          "max": 0,
          "per": null,
          "autoDeductCharges": true,
          "autoDeductChargesCost": "1"
        },
        "measureTemplate": {
          "type": "",
          "size": "",
          "overrideColor": false,
          "customColor": "",
          "overrideTexture": false,
          "customTexture": ""
        },
        "attackName": "",
        "actionType": null,
        "attackBonus": "",
        "critConfirmBonus": "",
        "damage": {
          "parts": [],
          "critParts": [],
          "nonCritParts": []
        },
        "attackParts": [],
        "formulaicAttacks": {
          "count": {
            "formula": "",
            "value": null
          },
          "bonus": {
            "formula": ""
          },
          "label": null
        },
        "formula": "",
        "ability": {
          "attack": null,
          "damage": null,
          "damageMult": 1,
          "critRange": 20,
          "critMult": 2
        },
        "save": {
          "dc": 0,
          "type": "",
          "description": ""
        },
        "effectNotes": "",
        "attackNotes": "",
        "soundEffect": "",
        "changes": [],
        "changeFlags": {
          "loseDexToAC": false,
          "noEncumbrance": false,
          "mediumArmorFullSpeed": false,
          "heavyArmorFullSpeed": false
        },
        "contextNotes": [],
        "links": {
          "children": [],
          "charges": []
        },
        "tag": "senseDarkvision60ft",
        "useCustomTag": false,
        "armorProf": {
          "value": [],
          "custom": ""
        },
        "weaponProf": {
          "value": [],
          "custom": ""
        },
        "flags": {
          "boolean": [],
          "dictionary": []
        },
        "scriptCalls": [],
        "featType": "racial",
        "associations": {
          "classes": []
        },
        "showInQuickbar": false,
        "nonlethal": false,
        "abilityType": "ex",
        "crOffset": "",
        "disabled": false,
        "attack": {
          "parts": []
        }
      },
      "effects": [],
      "folder": null,
      "sort": 0,
      "permission": {
        "default": 0
      },
      "flags": {}
    },
    {
      "_id": "Uuiu3p982omhMEPj",
      "name": "Improved Initiative",
      "type": "feat",
      "img": "systems/pf1/icons/feats/improved-initiative.jpg",
      "data": {
        "description": {
          "value": "\n                <i>Your quick reflexes allow you to react rapidly to danger.</i>\n                <br />\n                <br />\n                \n                <p><b>Benefits</b></p>\n                <p><p class=\"stat-block-1\"> You get a +4 bonus on initiative checks.</p></p>\n                \n            \n            ",
          "chat": "",
          "unidentified": ""
        },
        "tags": [
          [
            "Combat"
          ]
        ],
        "activation": {
          "cost": 1,
          "type": ""
        },
        "unchainedAction": {
          "activation": {
            "cost": 1,
            "type": ""
          }
        },
        "duration": {
          "value": null,
          "units": ""
        },
        "target": {
          "value": ""
        },
        "range": {
          "value": null,
          "units": "",
          "maxIncrements": 1,
          "minValue": null,
          "minUnits": "",
          "long": null
        },
        "uses": {
          "value": 0,
          "max": 0,
          "per": null,
          "autoDeductCharges": true,
          "autoDeductChargesCost": "1"
        },
        "measureTemplate": {
          "type": "",
          "size": "0",
          "overrideColor": false,
          "customColor": "",
          "overrideTexture": false,
          "customTexture": ""
        },
        "attackName": "",
        "actionType": "",
        "attackBonus": "",
        "critConfirmBonus": "",
        "damage": {
          "parts": [],
          "critParts": [],
          "nonCritParts": []
        },
        "attackParts": [],
        "formulaicAttacks": {
          "count": {
            "formula": "",
            "value": null
          },
          "bonus": {
            "formula": ""
          },
          "label": null
        },
        "formula": "",
        "ability": {
          "attack": null,
          "damage": null,
          "damageMult": 1,
          "critRange": 20,
          "critMult": 2
        },
        "save": {
          "dc": 0,
          "type": "",
          "description": ""
        },
        "effectNotes": "",
        "attackNotes": "",
        "soundEffect": "",
        "changes": [
          {
            "_id": "ign7okhi",
            "formula": "4",
            "operator": "add",
            "subTarget": "init",
            "modifier": "untyped",
            "priority": 0,
            "value": 0,
            "target": "misc"
          }
        ],
        "changeFlags": {
          "loseDexToAC": false,
          "noEncumbrance": false,
          "mediumArmorFullSpeed": false,
          "heavyArmorFullSpeed": false,
          "noStr": false,
          "noDex": false,
          "oneInt": false,
          "oneWis": false,
          "oneCha": false
        },
        "contextNotes": [],
        "links": {
          "children": [],
          "charges": []
        },
        "tag": "improvedInitiative",
        "useCustomTag": false,
        "armorProf": {
          "value": [],
          "custom": ""
        },
        "weaponProf": {
          "value": [],
          "custom": ""
        },
        "flags": {
          "boolean": [],
          "dictionary": []
        },
        "scriptCalls": [],
        "featType": "feat",
        "associations": {
          "classes": []
        },
        "showInQuickbar": false,
        "nonlethal": false,
        "abilityType": "none",
        "crOffset": "",
        "disabled": false,
        "recharge": {
          "value": null,
          "charged": false,
          "_deprecated": true
        },
        "time": {
          "value": "",
          "_deprecated": true
        },
        "damageType": {
          "value": "",
          "_deprecated": true
        },
        "attack": {
          "parts": []
        }
      },
      "effects": [],
      "folder": null,
      "sort": 0,
      "permission": {
        "default": 0
      },
      "flags": {}
    },
    {
      "_id": "iAbIGhm7T2OK9Brt",
      "name": "Iron Will",
      "type": "feat",
      "img": "systems/pf1/icons/feats/iron-will.jpg",
      "data": {
        "description": {
          "value": "\n                <i>You are more resistant to mental effects.</i>\n                <br />\n                <br />\n                \n                <p><b>Benefits</b></p>\n                <p><p class=\"stat-block-1\"> You get a +2 bonus on all Will saving throws.</p></p>\n                \n            \n            ",
          "chat": "",
          "unidentified": ""
        },
        "tags": [
          [
            "General"
          ],
          [
            "Saving Throw"
          ]
        ],
        "activation": {
          "cost": 1,
          "type": ""
        },
        "unchainedAction": {
          "activation": {
            "cost": 1,
            "type": ""
          }
        },
        "duration": {
          "value": null,
          "units": ""
        },
        "target": {
          "value": ""
        },
        "range": {
          "value": null,
          "units": "",
          "maxIncrements": 1,
          "minValue": null,
          "minUnits": "",
          "long": null
        },
        "uses": {
          "value": 0,
          "max": 0,
          "per": null,
          "autoDeductCharges": true,
          "autoDeductChargesCost": "1"
        },
        "measureTemplate": {
          "type": "",
          "size": "0",
          "overrideColor": false,
          "customColor": "",
          "overrideTexture": false,
          "customTexture": ""
        },
        "attackName": "",
        "actionType": "",
        "attackBonus": "",
        "critConfirmBonus": "",
        "damage": {
          "parts": [],
          "critParts": [],
          "nonCritParts": []
        },
        "attackParts": [],
        "formulaicAttacks": {
          "count": {
            "formula": "",
            "value": null
          },
          "bonus": {
            "formula": ""
          },
          "label": null
        },
        "formula": "",
        "ability": {
          "attack": null,
          "damage": null,
          "damageMult": 1,
          "critRange": 20,
          "critMult": 2
        },
        "save": {
          "dc": 0,
          "type": "",
          "description": ""
        },
        "effectNotes": "",
        "attackNotes": "",
        "soundEffect": "",
        "changes": [
          {
            "_id": "vafl2kz4",
            "formula": "2",
            "operator": "add",
            "subTarget": "will",
            "modifier": "untyped",
            "priority": 0,
            "value": 0,
            "target": "savingThrows"
          }
        ],
        "changeFlags": {
          "loseDexToAC": false,
          "noEncumbrance": false,
          "mediumArmorFullSpeed": false,
          "heavyArmorFullSpeed": false,
          "noStr": false,
          "noDex": false,
          "oneInt": false,
          "oneWis": false,
          "oneCha": false
        },
        "contextNotes": [],
        "links": {
          "children": [],
          "charges": []
        },
        "tag": "ironWill",
        "useCustomTag": false,
        "armorProf": {
          "value": [],
          "custom": ""
        },
        "weaponProf": {
          "value": [],
          "custom": ""
        },
        "flags": {
          "boolean": [],
          "dictionary": []
        },
        "scriptCalls": [],
        "featType": "feat",
        "associations": {
          "classes": []
        },
        "showInQuickbar": false,
        "nonlethal": false,
        "abilityType": "none",
        "crOffset": "",
        "disabled": false,
        "recharge": {
          "value": null,
          "charged": false,
          "_deprecated": true
        },
        "time": {
          "value": "",
          "_deprecated": true
        },
        "damageType": {
          "value": "",
          "_deprecated": true
        },
        "attack": {
          "parts": []
        }
      },
      "effects": [],
      "folder": null,
      "sort": 0,
      "permission": {
        "default": 0
      },
      "flags": {}
    },
    {
      "_id": "ja5da7w4sa88aj75",
      "name": "Special Quality: Entothropic Empathy",
      "type": "feat",
      "img": "systems/pf1/icons/skills/yellow_36.jpg",
      "data": {
        "description": {
          "value": "sbc | Placeholder for Special Qualities, which in most statblocks are listed under SQ in the statistics block, but described in the Special Abilities. Remove duplicates as needed!",
          "chat": "",
          "unidentified": ""
        },
        "tags": [],
        "activation": {
          "cost": 1,
          "type": ""
        },
        "unchainedAction": {
          "activation": {
            "cost": 1,
            "type": ""
          }
        },
        "duration": {
          "value": null,
          "units": ""
        },
        "target": {
          "value": ""
        },
        "range": {
          "value": null,
          "units": "",
          "maxIncrements": 1,
          "minValue": null,
          "minUnits": ""
        },
        "uses": {
          "value": 0,
          "max": 0,
          "per": null,
          "autoDeductCharges": true,
          "autoDeductChargesCost": "1"
        },
        "measureTemplate": {
          "type": "",
          "size": "",
          "overrideColor": false,
          "customColor": "",
          "overrideTexture": false,
          "customTexture": ""
        },
        "attackName": "",
        "actionType": null,
        "attackBonus": "",
        "critConfirmBonus": "",
        "damage": {
          "parts": [],
          "critParts": [],
          "nonCritParts": []
        },
        "attackParts": [],
        "formulaicAttacks": {
          "count": {
            "formula": "",
            "value": null
          },
          "bonus": {
            "formula": ""
          },
          "label": null
        },
        "formula": "",
        "ability": {
          "attack": null,
          "damage": null,
          "damageMult": 1,
          "critRange": 20,
          "critMult": 2
        },
        "save": {
          "dc": 0,
          "type": "",
          "description": ""
        },
        "effectNotes": "",
        "attackNotes": "",
        "soundEffect": "",
        "changes": [],
        "changeFlags": {
          "loseDexToAC": false,
          "noEncumbrance": false,
          "mediumArmorFullSpeed": false,
          "heavyArmorFullSpeed": false
        },
        "contextNotes": [],
        "links": {
          "children": [],
          "charges": []
        },
        "tag": "",
        "useCustomTag": false,
        "armorProf": {
          "value": [],
          "custom": ""
        },
        "weaponProf": {
          "value": [],
          "custom": ""
        },
        "flags": {
          "boolean": [],
          "dictionary": []
        },
        "scriptCalls": [],
        "featType": "misc",
        "associations": {
          "classes": []
        },
        "showInQuickbar": false,
        "nonlethal": false,
        "abilityType": "none",
        "crOffset": "",
        "disabled": false
      },
      "effects": [],
      "folder": null,
      "sort": 0,
      "permission": {
        "default": 0
      },
      "flags": {}
    },
    {
      "_id": "vwx19ohs6xhz07zi",
      "name": "Special Quality: Trapfinding +1",
      "type": "feat",
      "img": "systems/pf1/icons/skills/yellow_36.jpg",
      "data": {
        "description": {
          "value": "sbc | Placeholder for Special Qualities, which in most statblocks are listed under SQ in the statistics block, but described in the Special Abilities. Remove duplicates as needed!",
          "chat": "",
          "unidentified": ""
        },
        "tags": [],
        "activation": {
          "cost": 1,
          "type": ""
        },
        "unchainedAction": {
          "activation": {
            "cost": 1,
            "type": ""
          }
        },
        "duration": {
          "value": null,
          "units": ""
        },
        "target": {
          "value": ""
        },
        "range": {
          "value": null,
          "units": "",
          "maxIncrements": 1,
          "minValue": null,
          "minUnits": ""
        },
        "uses": {
          "value": 0,
          "max": 0,
          "per": null,
          "autoDeductCharges": true,
          "autoDeductChargesCost": "1"
        },
        "measureTemplate": {
          "type": "",
          "size": "",
          "overrideColor": false,
          "customColor": "",
          "overrideTexture": false,
          "customTexture": ""
        },
        "attackName": "",
        "actionType": null,
        "attackBonus": "",
        "critConfirmBonus": "",
        "damage": {
          "parts": [],
          "critParts": [],
          "nonCritParts": []
        },
        "attackParts": [],
        "formulaicAttacks": {
          "count": {
            "formula": "",
            "value": null
          },
          "bonus": {
            "formula": ""
          },
          "label": null
        },
        "formula": "",
        "ability": {
          "attack": null,
          "damage": null,
          "damageMult": 1,
          "critRange": 20,
          "critMult": 2
        },
        "save": {
          "dc": 0,
          "type": "",
          "description": ""
        },
        "effectNotes": "",
        "attackNotes": "",
        "soundEffect": "",
        "changes": [],
        "changeFlags": {
          "loseDexToAC": false,
          "noEncumbrance": false,
          "mediumArmorFullSpeed": false,
          "heavyArmorFullSpeed": false
        },
        "contextNotes": [],
        "links": {
          "children": [],
          "charges": []
        },
        "tag": "",
        "useCustomTag": false,
        "armorProf": {
          "value": [],
          "custom": ""
        },
        "weaponProf": {
          "value": [],
          "custom": ""
        },
        "flags": {
          "boolean": [],
          "dictionary": []
        },
        "scriptCalls": [],
        "featType": "misc",
        "associations": {
          "classes": []
        },
        "showInQuickbar": false,
        "nonlethal": false,
        "abilityType": "none",
        "crOffset": "",
        "disabled": false
      },
      "effects": [],
      "folder": null,
      "sort": 0,
      "permission": {
        "default": 0
      },
      "flags": {}
    },
    {
      "_id": "0omm0umg5v0icgpl",
      "name": "Special Quality: Change Shape (giant Spider,human,and Hybrid,vermin Shape Ii)",
      "type": "feat",
      "img": "systems/pf1/icons/skills/yellow_36.jpg",
      "data": {
        "description": {
          "value": "sbc | Placeholder for Special Qualities, which in most statblocks are listed under SQ in the statistics block, but described in the Special Abilities. Remove duplicates as needed!",
          "chat": "",
          "unidentified": ""
        },
        "tags": [],
        "activation": {
          "cost": 1,
          "type": ""
        },
        "unchainedAction": {
          "activation": {
            "cost": 1,
            "type": ""
          }
        },
        "duration": {
          "value": null,
          "units": ""
        },
        "target": {
          "value": ""
        },
        "range": {
          "value": null,
          "units": "",
          "maxIncrements": 1,
          "minValue": null,
          "minUnits": ""
        },
        "uses": {
          "value": 0,
          "max": 0,
          "per": null,
          "autoDeductCharges": true,
          "autoDeductChargesCost": "1"
        },
        "measureTemplate": {
          "type": "",
          "size": "",
          "overrideColor": false,
          "customColor": "",
          "overrideTexture": false,
          "customTexture": ""
        },
        "attackName": "",
        "actionType": null,
        "attackBonus": "",
        "critConfirmBonus": "",
        "damage": {
          "parts": [],
          "critParts": [],
          "nonCritParts": []
        },
        "attackParts": [],
        "formulaicAttacks": {
          "count": {
            "formula": "",
            "value": null
          },
          "bonus": {
            "formula": ""
          },
          "label": null
        },
        "formula": "",
        "ability": {
          "attack": null,
          "damage": null,
          "damageMult": 1,
          "critRange": 20,
          "critMult": 2
        },
        "save": {
          "dc": 0,
          "type": "",
          "description": ""
        },
        "effectNotes": "",
        "attackNotes": "",
        "soundEffect": "",
        "changes": [],
        "changeFlags": {
          "loseDexToAC": false,
          "noEncumbrance": false,
          "mediumArmorFullSpeed": false,
          "heavyArmorFullSpeed": false
        },
        "contextNotes": [],
        "links": {
          "children": [],
          "charges": []
        },
        "tag": "",
        "useCustomTag": false,
        "armorProf": {
          "value": [],
          "custom": ""
        },
        "weaponProf": {
          "value": [],
          "custom": ""
        },
        "flags": {
          "boolean": [],
          "dictionary": []
        },
        "scriptCalls": [],
        "featType": "misc",
        "associations": {
          "classes": []
        },
        "showInQuickbar": false,
        "nonlethal": false,
        "abilityType": "none",
        "crOffset": "",
        "disabled": false
      },
      "effects": [],
      "folder": null,
      "sort": 0,
      "permission": {
        "default": 0
      },
      "flags": {}
    },
    {
      "_id": "KQYCRLEdD4bGA5ak",
      "name": "Evasion",
      "type": "feat",
      "img": "systems/pf1/icons/skills/blue_06.jpg",
      "data": {
        "description": {
          "value": "<p>This character can avoid damage from many area-effect attacks. If she makes a successful <a href=\"https://www.d20pfsrd.com/gamemastering/combat#TOC-Reflex\">Reflex</a>&nbsp;<a href=\"https://www.d20pfsrd.com/gamemastering/combat#TOC-Saving-Throws\">saving throw</a> against an attack that normally deals half damage on a successful save, she instead takes no damage. Evasion can be used only if the character is wearing light armor or no armor. A <a href=\"https://www.d20pfsrd.com/gamemastering/conditions#TOC-Helpless\">helpless</a> character does not gain the benefit of <a href=\"https://www.d20pfsrd.com/classes/core-classes/rogue#TOC-Evasion-Ex-\">evasion</a>.</p>",
          "chat": "",
          "unidentified": ""
        },
        "tags": [],
        "activation": {
          "cost": 1,
          "type": "passive"
        },
        "unchainedAction": {
          "activation": {
            "cost": 1,
            "type": "passive"
          }
        },
        "duration": {
          "value": null,
          "units": ""
        },
        "target": {
          "value": ""
        },
        "range": {
          "value": null,
          "units": "",
          "maxIncrements": 1,
          "minValue": null,
          "minUnits": "",
          "long": null
        },
        "uses": {
          "value": 0,
          "max": 0,
          "per": "",
          "autoDeductCharges": true,
          "autoDeductChargesCost": "1"
        },
        "measureTemplate": {
          "type": "",
          "size": "0",
          "overrideColor": false,
          "customColor": "",
          "overrideTexture": false,
          "customTexture": ""
        },
        "attackName": "",
        "actionType": "",
        "attackBonus": "",
        "critConfirmBonus": "",
        "damage": {
          "parts": [],
          "critParts": [],
          "nonCritParts": []
        },
        "attackParts": [],
        "formulaicAttacks": {
          "count": {
            "formula": "",
            "value": null
          },
          "bonus": {
            "formula": ""
          },
          "label": null
        },
        "formula": "",
        "ability": {
          "attack": null,
          "damage": null,
          "damageMult": 1,
          "critRange": 20,
          "critMult": 2
        },
        "save": {
          "dc": 0,
          "type": "",
          "description": ""
        },
        "effectNotes": "",
        "attackNotes": "",
        "soundEffect": "",
        "changes": [],
        "changeFlags": {
          "loseDexToAC": false,
          "noEncumbrance": false,
          "mediumArmorFullSpeed": false,
          "heavyArmorFullSpeed": false,
          "noStr": false,
          "noDex": false,
          "oneInt": false,
          "oneWis": false,
          "oneCha": false
        },
        "contextNotes": [
          {
            "subTarget": "ref",
            "target": "savingThrows",
            "text": "Evasion"
          }
        ],
        "links": {
          "children": [],
          "charges": []
        },
        "tag": "evasion",
        "useCustomTag": false,
        "armorProf": {
          "value": [],
          "custom": ""
        },
        "weaponProf": {
          "value": [],
          "custom": ""
        },
        "flags": {
          "boolean": [],
          "dictionary": []
        },
        "scriptCalls": [],
        "featType": "classFeat",
        "associations": {
          "classes": [
            [
              "Monk"
            ],
            [
              "Rogue"
            ]
          ]
        },
        "showInQuickbar": false,
        "nonlethal": false,
        "abilityType": "ex",
        "crOffset": "",
        "disabled": false,
        "attack": {
          "parts": []
        },
        "conditionals": [],
        "identifiedName": "Evasion"
      },
      "effects": [],
      "folder": null,
      "sort": 0,
      "permission": {
        "default": 0
      },
      "flags": {}
    },
    {
      "_id": "s3zhkilz40iqadjk",
      "name": "Insect Mind",
      "type": "feat",
      "img": "systems/pf1/icons/skills/yellow_36.jpg",
      "data": {
        "description": {
          "value": "sbc | Placeholder",
          "chat": "",
          "unidentified": ""
        },
        "tags": [],
        "activation": {
          "cost": 1,
          "type": ""
        },
        "unchainedAction": {
          "activation": {
            "cost": 1,
            "type": ""
          }
        },
        "duration": {
          "value": null,
          "units": ""
        },
        "target": {
          "value": ""
        },
        "range": {
          "value": null,
          "units": "",
          "maxIncrements": 1,
          "minValue": null,
          "minUnits": ""
        },
        "uses": {
          "value": 0,
          "max": 0,
          "per": null,
          "autoDeductCharges": true,
          "autoDeductChargesCost": "1"
        },
        "measureTemplate": {
          "type": "",
          "size": "",
          "overrideColor": false,
          "customColor": "",
          "overrideTexture": false,
          "customTexture": ""
        },
        "attackName": "",
        "actionType": null,
        "attackBonus": "",
        "critConfirmBonus": "",
        "damage": {
          "parts": [],
          "critParts": [],
          "nonCritParts": []
        },
        "attackParts": [],
        "formulaicAttacks": {
          "count": {
            "formula": "",
            "value": null
          },
          "bonus": {
            "formula": ""
          },
          "label": null
        },
        "formula": "",
        "ability": {
          "attack": null,
          "damage": null,
          "damageMult": 1,
          "critRange": 20,
          "critMult": 2
        },
        "save": {
          "dc": 0,
          "type": "",
          "description": ""
        },
        "effectNotes": "",
        "attackNotes": "",
        "soundEffect": "",
        "changes": [],
        "changeFlags": {
          "loseDexToAC": false,
          "noEncumbrance": false,
          "mediumArmorFullSpeed": false,
          "heavyArmorFullSpeed": false
        },
        "contextNotes": [],
        "links": {
          "children": [],
          "charges": []
        },
        "tag": "",
        "useCustomTag": false,
        "armorProf": {
          "value": [],
          "custom": ""
        },
        "weaponProf": {
          "value": [],
          "custom": ""
        },
        "flags": {
          "boolean": [],
          "dictionary": []
        },
        "scriptCalls": [],
        "featType": "classFeat",
        "associations": {
          "classes": []
        },
        "showInQuickbar": false,
        "nonlethal": false,
        "abilityType": "",
        "crOffset": "",
        "disabled": false
      },
      "effects": [],
      "folder": null,
      "sort": 0,
      "permission": {
        "default": 0
      },
      "flags": {}
    },
    {
      "_id": "cdh3ea74xfilthcu",
      "name": "Short Sword",
      "type": "attack",
      "img": null,
      "data": {
        "description": {
          "value": "",
          "chat": "",
          "unidentified": ""
        },
        "tags": [],
        "activation": {
          "cost": 1,
          "type": "attack"
        },
        "unchainedAction": {
          "activation": {
            "cost": 1,
            "type": ""
          }
        },
        "duration": {
          "value": null,
          "units": "inst"
        },
        "target": {
          "value": ""
        },
        "range": {
          "value": "",
          "units": "melee",
          "maxIncrements": 1,
          "minValue": null,
          "minUnits": ""
        },
        "uses": {
          "value": 0,
          "max": 0,
          "per": null,
          "autoDeductCharges": true,
          "autoDeductChargesCost": "1"
        },
        "measureTemplate": {
          "type": "",
          "size": "",
          "overrideColor": false,
          "customColor": "",
          "overrideTexture": false,
          "customTexture": ""
        },
        "attackName": "Short Sword",
        "actionType": "mwak",
        "attackBonus": "0",
        "critConfirmBonus": "",
        "damage": {
          "parts": [
            [
              "1d6+0",
              "P"
            ]
          ],
          "critParts": [],
          "nonCritParts": []
        },
        "attackParts": [],
        "formulaicAttacks": {
          "count": {
            "formula": "",
            "value": null
          },
          "bonus": {
            "formula": ""
          },
          "label": null
        },
        "formula": "",
        "ability": {
          "attack": "str",
          "damage": "str",
          "damageMult": 1,
          "critRange": "19",
          "critMult": 2
        },
        "save": {
          "dc": 0,
          "type": "",
          "description": ""
        },
        "effectNotes": "",
        "attackNotes": "short sword +3 (1d6+2/19-20 )",
        "soundEffect": "",
        "links": {
          "children": [],
          "charges": []
        },
        "tag": "",
        "useCustomTag": false,
        "flags": {
          "boolean": [],
          "dictionary": []
        },
        "scriptCalls": [],
        "attackType": "weapon",
        "masterwork": false,
        "nonlethal": false,
        "enh": null,
        "proficient": true,
        "primaryAttack": false,
        "showInQuickbar": true,
        "broken": false,
        "held": "normal",
        "conditionals": []
      },
      "effects": [],
      "folder": null,
      "sort": 0,
      "permission": {
        "default": 0
      },
      "flags": {}
    },
    {
      "_id": "65t8ly549vs2rmpy",
      "name": "Special Attack: Sneak Attack +1d6",
      "type": "attack",
      "img": "systems/pf1/icons/skills/yellow_36.jpg",
      "data": {
        "description": {
          "value": "sbc | Placeholder for Special Attacks, which in most statblocks are listed under 'Special Attacks' in the statistics block, but are described in the 'Special Abilities' block. Remove duplicates as needed!",
          "chat": "",
          "unidentified": ""
        },
        "tags": [],
        "activation": {
          "cost": 1,
          "type": ""
        },
        "unchainedAction": {
          "activation": {
            "cost": 1,
            "type": ""
          }
        },
        "duration": {
          "value": null,
          "units": ""
        },
        "target": {
          "value": ""
        },
        "range": {
          "value": null,
          "units": "",
          "maxIncrements": 1,
          "minValue": null,
          "minUnits": ""
        },
        "uses": {
          "value": 0,
          "max": 0,
          "per": null,
          "autoDeductCharges": true,
          "autoDeductChargesCost": "1"
        },
        "measureTemplate": {
          "type": "",
          "size": "",
          "overrideColor": false,
          "customColor": "",
          "overrideTexture": false,
          "customTexture": ""
        },
        "attackName": "",
        "actionType": null,
        "attackBonus": "",
        "critConfirmBonus": "",
        "damage": {
          "parts": [],
          "critParts": [],
          "nonCritParts": []
        },
        "attackParts": [],
        "formulaicAttacks": {
          "count": {
            "formula": "",
            "value": null
          },
          "bonus": {
            "formula": ""
          },
          "label": null
        },
        "formula": "",
        "ability": {
          "attack": null,
          "damage": null,
          "damageMult": 1,
          "critRange": 20,
          "critMult": 2
        },
        "save": {
          "dc": 0,
          "type": "",
          "description": ""
        },
        "effectNotes": "",
        "attackNotes": "",
        "soundEffect": "",
        "links": {
          "children": [],
          "charges": []
        },
        "tag": "",
        "useCustomTag": false,
        "flags": {
          "boolean": [],
          "dictionary": []
        },
        "scriptCalls": [],
        "attackType": "misc",
        "masterwork": false,
        "nonlethal": false,
        "enh": null,
        "proficient": true,
        "primaryAttack": true,
        "showInQuickbar": true,
        "broken": false,
        "held": "normal",
        "conditionals": []
      },
      "effects": [],
      "folder": null,
      "sort": 0,
      "permission": {
        "default": 0
      },
      "flags": {}
    },
    {
      "_id": "mt1vobysh9cy8dw3",
      "name": "Ecology",
      "type": "feat",
      "img": "icons/environment/wilderness/tree-oak.webp",
      "data": {
        "description": {
          "value": "<div><strong>Environment</strong>:  any</div><div><strong>Organization</strong>:  solitary, pair, or colony (3-10)</div><div><strong>Treasure</strong>:  NPC gear (studded leather armor, short sword, 2 doses of Medium spider venom, other treasure)</div>",
          "chat": "",
          "unidentified": ""
        },
        "tags": [],
        "activation": {
          "cost": 1,
          "type": ""
        },
        "unchainedAction": {
          "activation": {
            "cost": 1,
            "type": ""
          }
        },
        "duration": {
          "value": null,
          "units": ""
        },
        "target": {
          "value": ""
        },
        "range": {
          "value": null,
          "units": "",
          "maxIncrements": 1,
          "minValue": null,
          "minUnits": ""
        },
        "uses": {
          "value": 0,
          "max": 0,
          "per": null,
          "autoDeductCharges": true,
          "autoDeductChargesCost": "1"
        },
        "measureTemplate": {
          "type": "",
          "size": "",
          "overrideColor": false,
          "customColor": "",
          "overrideTexture": false,
          "customTexture": ""
        },
        "attackName": "",
        "actionType": null,
        "attackBonus": "",
        "critConfirmBonus": "",
        "damage": {
          "parts": [],
          "critParts": [],
          "nonCritParts": []
        },
        "attackParts": [],
        "formulaicAttacks": {
          "count": {
            "formula": "",
            "value": null
          },
          "bonus": {
            "formula": ""
          },
          "label": null
        },
        "formula": "",
        "ability": {
          "attack": null,
          "damage": null,
          "damageMult": 1,
          "critRange": 20,
          "critMult": 2
        },
        "save": {
          "dc": 0,
          "type": "",
          "description": ""
        },
        "effectNotes": "",
        "attackNotes": "",
        "soundEffect": "",
        "changes": [],
        "changeFlags": {
          "loseDexToAC": false,
          "noEncumbrance": false,
          "mediumArmorFullSpeed": false,
          "heavyArmorFullSpeed": false
        },
        "contextNotes": [],
        "links": {
          "children": [],
          "charges": []
        },
        "tag": "",
        "useCustomTag": false,
        "armorProf": {
          "value": [],
          "custom": ""
        },
        "weaponProf": {
          "value": [],
          "custom": ""
        },
        "flags": {
          "boolean": [],
          "dictionary": []
        },
        "scriptCalls": [],
        "featType": "misc",
        "associations": {
          "classes": []
        },
        "showInQuickbar": false,
        "nonlethal": false,
        "abilityType": "none",
        "crOffset": "",
        "disabled": false
      },
      "effects": [],
      "folder": null,
      "sort": 0,
      "permission": {
        "default": 0
      },
      "flags": {}
    },
    {
      "_id": "PFXCjhD3yiGFsT3a",
      "name": "sbc | Conversion Buff",
      "type": "buff",
      "img": "systems/pf1/icons/skills/yellow_36.jpg",
      "data": {
        "description": {
          "value": "<h2>sbc | Conversion Buff</h2>\n                        This Buff was created by <strong>sbc</strong> to compensate for differences between the input and the values FoundryVTT calculates automatically.\n                        <br><br>\n                        Especially when the pathfinder system gets upgraded, entries in compendiums get updated or foundry changes in some way, this buff may become outdated.\n                        <br><br>\n                        For most mooks the conversion should more or less work, but for important NPCs or creatures it is adviced to double check the conversion manually.",
          "chat": "",
          "unidentified": ""
        },
        "tags": [],
        "changes": [
          {
            "formula": "2",
            "modifier": "untypedPerm",
            "operator": "add",
            "priority": 0,
            "subTarget": "mhp",
            "target": "misc",
            "value": 2,
            "id": "94pgqqsz"
          },
          {
            "formula": "-2",
            "modifier": "untypedPerm",
            "operator": "add",
            "priority": 0,
            "subTarget": "ref",
            "target": "savingThrows",
            "value": -2,
            "id": "abh4244g"
          },
          {
            "formula": "3",
            "modifier": "untypedPerm",
            "operator": "add",
            "priority": 0,
            "subTarget": "aac",
            "target": "ac",
            "value": 3,
            "id": "66dbo6d3"
          }
        ],
        "changeFlags": {
          "loseDexToAC": false,
          "noEncumbrance": false,
          "mediumArmorFullSpeed": false,
          "heavyArmorFullSpeed": false,
          "noDex": false,
          "noStr": false,
          "oneCha": false,
          "oneInt": false,
          "oneWis": false
        },
        "contextNotes": [],
        "links": {
          "children": []
        },
        "tag": "sbcConversionBuff",
        "useCustomTag": true,
        "flags": {
          "boolean": [],
          "dictionary": []
        },
        "scriptCalls": [],
        "buffType": "perm",
        "active": true,
        "level": 0,
        "hideFromToken": true,
        "uses": {
          "value": 0,
          "max": 0
        }
      },
      "effects": [],
      "folder": null,
      "sort": 0,
      "permission": {
        "default": 0,
        "iM1ACTqH0Ml6HJtd": 3
      },
      "flags": {}
    }
  ],
  "effects": [],
  "folder": null,
  "sort": 0,
  "permission": {
    "default": 0
  },
  "flags": {},
  "_id": "eJ61cvKODWWrRMSQ"
}